	tematica	categoria	registros	registros_continentales	registros_marinos	registros_salobres	especies	especies_continentales	especies_marinas	especies_salobres
0	threatStatus_UICN	CR_IUCN	1772	1756	16.0	6.0	20	16	4.0	2.0
1	threatStatus_UICN	DD_IUCN	1098	1060	38.0	36.0	49	43	7.0	4.0
2	threatStatus_UICN	EN_IUCN	1293	1293			53	53		
3	threatStatus_UICN	EW_IUCN	230	230			5	5		
4	threatStatus_UICN	LC_IUCN	308355	303006	4076.0	2378.0	2378	2238	205.0	78.0
5	threatStatus_UICN	LR/lc_IUCN	682	682			9	9		
6	threatStatus_UICN	LR/nt_IUCN	17	17			5	5		
7	threatStatus_UICN	NT_IUCN	3907	3819	71.0	2.0	91	89	5.0	1.0
8	threatStatus_UICN	VU_IUCN	5015	4986	29.0		99	93	8.0	
9	isInvasive_mads	Invasora_MADS	11	11			5	5		
10	appendixCITES	I	316	176	140.0		15	14	3.0	
11	appendixCITES	II	45663	45512	14.0	44.0	401	399	3.0	2.0
12	appendixCITES	III	1195	1195			10	10		
13	threatStatus_MADS	CR_MADS	379	379			14	14		
14	threatStatus_MADS	EN_MADS	1990	1940	46.0		61	60	3.0	
15	threatStatus_MADS	VU_MADS	7425	7039	386.0	140.0	88	83	11.0	3.0
16	exotic	Exótica	2119	2092	27.0		142	142	5.0	
17	isInvasive_griis	Invasora GRIIS	1202	1202			24	24		
18	endemic	Endémica	15489	15488			588	588		
19	migratory	Migratorio	15234	13590	1441.0	43.0	113	108	33.0	3.0
