slug_grupo_biologico	registros_region_total	especies_region_total	especies_amenazadas_nacional_total	especies_amenazadas_nacional_cr	especies_amenazadas_nacional_en	especies_amenazadas_nacional_vu	registros_amenazadas_nacional_total	registros_amenazadas_nacional_cr	registros_amenazadas_nacional_en	registros_amenazadas_nacional_vu	especies_cites_total	especies_cites_i	especies_cites_ii	especies_cites_iii	registros_cites_total	registros_cites_i	registros_cites_ii	registros_cites_iii	especies_exoticas	especies_invasoras	especies_exoticas_riesgo_invasion	registros_exoticas	registros_invasoras	registros_exoticas_riesgo_invasion	especies_endemicas	especies_migratorias	registros_endemicas	registros_migratorias	especies_amenazadas_global_ew	especies_amenazadas_global_cr	especies_amenazadas_global_en	especies_amenazadas_global_vu	especies_amenazadas_global_nt	especies_amenazadas_global_lc	especies_amenazadas_global_dd	registros_amenazadas_global_ew	registros_amenazadas_global_cr	registros_amenazadas_global_en	registros_amenazadas_global_vu	registros_amenazadas_global_nt	registros_amenazadas_global_lc	registros_amenazadas_global_dd
abejas	527	20	0	-	-	-	0	-	-	-	0	-	-	-	0	-	-	-	1	0	0	60	0	0	0	-	0	-	-	-	-	-	-	2	3	-	-	-	-	-	40	95
algas	353	9	0	-	-	-	0	-	-	-	0	-	-	-	0	-	-	-	0	0	0	0	0	0	0	-	0	-	-	-	-	-	-	1	-	-	-	-	-	-	3	-
anfibios	10636	123	10	4	4	2	414	108	108	198	1	-	1	-	1	-	1	-	0	0	0	0	0	0	0	-	0	-	-	7	22	21	15	51	5	-	122	592	1678	922	4806	730
angiospermas	205553	4793	118	17	54	47	2421	192	1142	1087	245	1	244	-	1954	1	1953	-	294	3	16	3544	55	442	930	-	38552	-	2	28	79	96	31	908	26	46	215	3084	2658	754	57482	93
animales	409466	2298	108	14	41	53	16027	2344	2990	10693	209	12	184	13	76098	7126	68580	392	18	2	12	1231	132	1103	106	83	8800	8305	-	13	41	82	74	1136	25	-	733	3648	14369	10774	329912	905
antocerotas	30	1	0	-	-	-	0	-	-	-	0	-	-	-	0	-	-	-	0	0	0	0	0	0	1	-	1	-	-	-	-	-	-	-	-	-	-	-	-	-	-	-
aracnidos	3812	70	2	-	-	2	18	-	-	18	0	-	-	-	0	-	-	-	0	0	0	0	0	0	0	-	0	-	-	-	-	-	-	-	-	-	-	-	-	-	-	-
aves	347752	1026	80	8	33	39	9562	2227	2610	4725	182	5	169	8	69682	1137	68457	88	5	0	4	941	0	940	62	83	7957	8305	-	6	15	47	50	871	1	-	611	2728	6815	8856	322128	1
bacterias	2210	93	0	-	-	-	0	-	-	-	0	-	-	-	0	-	-	-	0	0	0	0	0	0	0	-	0	-	-	-	-	-	-	-	-	-	-	-	-	-	-	-
bromelias-labiadas-pasifloras	6212	239	43	7	22	14	368	106	71	191	0	-	-	-	0	-	-	-	10	0	1	79	0	13	72	-	3256	-	-	5	7	8	1	52	1	-	96	31	502	2	3313	3
chromista	374	28	0	-	-	-	0	-	-	-	0	-	-	-	0	-	-	-	0	0	0	0	0	0	0	-	0	-	-	-	-	-	-	-	-	-	-	-	-	-	-	-
corales	1	-	0	-	-	-	0	-	-	-	0	-	-	-	0	-	-	-	0	0	0	0	0	0	0	-	0	-	-	-	-	-	-	-	-	-	-	-	-	-	-	-
crustaceos	671	16	1	-	1	-	4	-	4	-	0	-	-	-	0	-	-	-	1	0	1	6	0	6	0	-	0	-	-	-	-	-	-	6	-	-	-	-	-	-	15	-
decapodos	22	6	1	-	1	-	4	-	4	-	0	-	-	-	0	-	-	-	1	0	1	6	0	6	0	-	0	-	-	-	-	-	-	6	-	-	-	-	-	-	15	-
dipteros	9720	61	0	-	-	-	0	-	-	-	0	-	-	-	0	-	-	-	1	0	0	3	0	0	0	-	0	-	-	-	-	-	-	-	-	-	-	-	-	-	-	-
epifitas	10849	530	18	1	11	6	57	5	38	14	127	-	127	-	1300	-	1300	-	3	0	0	363	0	0	118	-	1005	-	-	-	1	8	3	29	1	-	-	4	119	4	2781	3
escarabajos	10448	77	1	-	-	1	1	-	-	1	0	-	-	-	0	-	-	-	1	0	1	1	0	1	1	-	1	-	-	-	-	-	-	4	1	-	-	-	-	-	120	28
especies-maderables	584	5	5	2	1	2	584	3	12	569	0	-	-	-	0	-	-	-	0	0	0	0	0	0	1	-	1	-	-	1	1	1	-	2	-	-	1	12	2	-	569	-
esponjas	20	-	0	-	-	-	0	-	-	-	0	-	-	-	0	-	-	-	0	0	0	0	0	0	0	-	0	-	-	-	-	-	-	-	-	-	-	-	-	-	-	-
faneragamas	16	11	1	-	1	-	2	-	2	-	0	-	-	-	0	-	-	-	0	0	0	0	0	0	0	-	0	-	-	-	-	-	-	5	-	-	-	-	-	-	8	-
frailejones	18502	87	28	6	13	9	1109	72	840	197	0	-	-	-	0	-	-	-	0	0	0	0	0	0	50	-	13570	-	-	11	22	14	4	17	1	-	59	2478	976	443	11511	2
gimnospermas	118	8	2	-	-	2	86	-	-	86	0	-	-	-	0	-	-	-	4	0	3	16	0	15	0	-	0	-	-	-	-	3	-	5	-	-	-	-	22	-	86	-
helechos	13338	482	0	-	-	-	0	-	-	-	13	-	13	-	432	-	432	-	284	0	282	5426	0	5416	10	-	54	-	-	1	-	2	1	7	2	-	3	-	16	1	8	5
hepaticas	12635	443	19	-	-	19	146	-	-	146	0	-	-	-	0	-	-	-	1	0	1	12	0	12	15	-	105	-	-	-	-	-	-	2	-	-	-	-	-	-	109	-
hongos	7236	474	0	-	-	-	0	-	-	-	0	-	-	-	0	-	-	-	0	0	0	0	0	0	10	-	24	-	-	-	-	-	-	3	-	-	-	-	-	-	15	-
hormigas	445	46	0	-	-	-	0	-	-	-	0	-	-	-	0	-	-	-	0	0	0	0	0	0	0	-	0	-	-	-	-	-	-	-	-	-	-	-	-	-	-	-
insectos	32522	728	3	1	1	1	10	8	1	1	0	-	-	-	0	-	-	-	3	0	1	64	0	1	1	-	1	-	-	-	-	-	-	19	4	-	-	-	-	-	183	123
invertebrados	39809	892	6	1	2	3	32	8	5	19	0	-	-	-	0	-	-	-	5	0	2	72	0	7	1	-	1	-	-	-	-	-	-	26	4	-	-	-	-	-	199	123
liquenes	6146	328	0	-	-	-	0	-	-	-	0	-	-	-	0	-	-	-	0	0	0	0	0	0	10	-	24	-	-	-	-	-	-	2	-	-	-	-	-	-	9	-
magnolias-afines	114	11	7	2	1	4	97	7	1	89	0	-	-	-	0	-	-	-	0	0	0	0	0	0	5	-	12	-	-	2	1	2	-	5	-	-	7	1	21	-	77	-
mamiferos	10042	150	8	1	2	5	5754	1	267	5486	24	7	12	5	6413	5989	120	304	6	0	4	86	0	24	22	-	767	-	-	-	4	12	5	106	12	-	-	328	5874	729	2315	47
mangles	4	3	0	-	-	-	0	-	-	-	0	-	-	-	0	-	-	-	0	0	0	0	0	0	0	-	0	-	-	-	-	1	-	1	-	-	-	-	1	-	1	-
mariposas	3975	428	2	1	1	-	9	8	1	-	0	-	-	-	0	-	-	-	0	0	0	0	0	0	0	-	0	-	-	-	-	-	-	5	-	-	-	-	-	-	8	-
moluscos	216	33	0	-	-	-	0	-	-	-	0	-	-	-	0	-	-	-	1	0	0	2	0	0	0	-	0	-	-	-	-	-	-	1	-	-	-	-	-	-	1	-
musgos	22981	760	13	2	1	10	40	3	1	36	0	-	-	-	0	-	-	-	0	0	0	0	0	0	13	-	88	-	-	-	-	-	-	-	-	-	-	-	-	-	-	-
orquideas	5101	476	30	1	12	17	208	5	39	164	242	1	241	-	1941	1	1940	-	0	0	0	0	0	0	111	-	627	-	-	-	1	-	-	16	3	-	-	1	-	-	411	6
palmas	354	17	6	-	3	3	204	-	173	31	0	-	-	-	0	-	-	-	0	0	0	0	0	0	3	-	7	-	-	-	1	2	-	6	-	-	-	2	173	-	12	-
peces	326	39	2	-	-	2	2	-	-	2	0	-	-	-	0	-	-	-	2	2	2	132	132	132	21	-	75	-	-	-	-	2	-	27	1	-	-	-	2	-	34	2
peces-dulceacuicolas	91	34	2	-	-	2	2	-	-	2	0	-	-	-	0	-	-	-	0	0	0	0	0	0	21	-	75	-	-	-	-	1	-	24	1	-	-	-	1	-	30	2
pinos-afines	20	5	0	-	-	-	0	-	-	-	0	-	-	-	0	-	-	-	4	0	3	16	0	15	0	-	0	-	-	-	-	1	-	4	-	-	-	-	1	-	16	-
plantas	259347	6569	152	19	55	78	2693	195	1143	1355	258	1	257	-	2386	1	2385	-	583	3	302	8998	55	5885	977	-	38896	-	2	29	79	101	32	926	28	46	218	3084	2696	755	57805	98
protozoos	38	3	0	-	-	-	0	-	-	-	0	-	-	-	0	-	-	-	0	0	0	0	0	0	0	-	0	-	-	-	-	-	-	-	-	-	-	-	-	-	-	-
reptiles	770	68	2	-	-	2	263	-	-	263	2	-	2	-	2	-	2	-	0	0	0	0	0	0	0	-	0	-	-	-	-	-	4	55	2	-	-	-	-	267	430	2
vertebrados	369526	1406	102	13	39	50	15995	2336	2985	10674	209	12	184	13	76098	7126	68580	392	13	2	10	1159	132	1096	105	83	8799	8305	-	13	41	82	74	1110	21	-	733	3648	14369	10774	329713	782
virus	2	-	0	-	-	-	0	-	-	-	0	-	-	-	0	-	-	-	0	0	0	0	0	0	0	-	0	-	-	-	-	-	-	-	-	-	-	-	-	-	-	-
zamias	1	-	0	-	-	-	0	-	-	-	0	-	-	-	0	-	-	-	0	0	0	0	0	0	0	-	0	-	-	-	-	-	-	-	-	-	-	-	-	-	-	-
