grupoBio	especies	especies_amenazadas_nacional	especies_amenazadas_nacional_cr	especies_amenazadas_nacional_en	especies_amenazadas_nacional_vu	especies_cites	especies_cites_i	especies_cites_i_ii	especies_cites_ii	especies_cites_iii	especies_endemicas	especies_exoticas	especies_invasoras	especies_migratorias	especies_amenazadas_global	especies_amenazadas_global_ex	especies_amenazadas_global_ew	especies_amenazadas_global_cr	especies_amenazadas_global_en	especies_amenazadas_global_vu	especies_amenazadas_global_nt	especies_amenazadas_global_lc	especies_amenazadas_global_dd	registros	registros_amenazadas_nacional	registros_amenazadas_nacional_cr	registros_amenazadas_nacional_en	registros_amenazadas_nacional_vu	registros_cites	registros_cites_i	registros_cites_i_ii	registros_cites_ii	registros_cites_iii	registros_endemicas	registros_exoticas	registros_invasoras	registros_migratorias	registros_amenazadas_global	registros_amenazadas_global_ex	registros_amenazadas_global_ew	registros_amenazadas_global_cr	registros_amenazadas_global_en	registros_amenazadas_global_vu	registros_amenazadas_global_nt	registros_amenazadas_global_lc	registros_amenazadas_global_dd
Abejas	32	1	1	0	0	0	0	0	0	0	0	1	0	0	1	0	0	0	0	0	0	1	0	387	1	1	0	0	0	0	0	0	0	0	12	0	0	1	0	0	0	0	0	0	1	0
Algas	4	0				0					0	0			0									1236	0				0					0	0			0								
Anfibios	120	5	1	1	3	3	0	0	3	0	0	1	1	0	106	0	0	3	5	13	9	76	0	3887	127	1	3	123	148	0	0	148	0	0	1	1	0	3144	0	0	52	51	302	220	2519	0
Animales	2884	79	9	17	53	198	13	1	171	13	131	28	3	89	1345	0	0	7	15	55	50	1186	32	527997	6414	393	907	5114	55688	1045	2	52464	2177	12241	8867	558	30388	406983	0	0	343	152	4264	5179	396892	153
Arácnidos	77	2	0	1	1	0	0	0	0	0	0	1	0	0	1	0	0	0	0	0	0	1	0	1995	3	0	1	2	0	0	0	0	0	0	2	0	0	10	0	0	0	0	0	0	10	0
Aves	889	41	4	11	26	155	5	0	145	5	27	9	0	89	817	0	0	1	3	25	30	757	1	403406	5932	384	823	4725	53808	810	0	51883	1115	5488	7593	0	30388	387248	0	0	223	13	3366	4614	379029	3
Bromelias,  labiadas y pasifloras	160	10	6	1	3	0	0	0	0	0	28	1	0	0	25	0	0	1	1	2	0	21	0	1047	70	21	2	47	0	0	0	0	0	178	4	0	0	98	0	0	2	2	5	0	89	0
Cactus	7	0	0	0	0	4	0	0	4	0	1	0	0	0	4	0	0	0	0	0	0	3	1	31	0	0	0	0	9	0	0	9	0	1	0	0	0	9	0	0	0	0	0	0	8	1
Dipteros	60	0	0	0	0	0	0	0	0	0	0	3	0	0	0	0	0	0	0	0	0	0	0	11902	0	0	0	0	0	0	0	0	0	0	19	0	0	0	0	0	0	0	0	0	0	0
Escarabajos	203	1	0	0	1	0	0	0	0	0	0	2	0	0	4	0	0	0	0	0	0	4	0	26687	2	0	0	2	0	0	0	0	0	0	36	0	0	28	0	0	0	0	0	0	28	0
Especies Maderables	7	7	2	3	2	1	0	0	1	0	0	0	0	0	7	0	0	0	3	1	0	2	0	282	282	7	242	33	2	0	0	2	0	0	0	0	0	282	0	0	0	242	2	0	33	0
Fanerógamas	20	7	2	1	4	0	0	0	0	0	3	0	0	0	12	0	0	0	1	3	0	7	0	350	20	6	1	13	0	0	0	0	0	9	0	0	0	266	0	0	0	1	13	0	247	0
Frailejones	1	0	0	0	0	0	0	0	0	0	1	0	0	0	1	0	0	0	0	0	0	1	0	859	0	0	0	0	0	0	0	0	0	841	0	0	0	841	0	0	0	0	0	0	841	0
Helechos y afines	351	0	0	0	0	13	0	0	13	0	8	1	0	0	4	0	0	0	0	0	0	3	1	2387	0	0	0	0	181	0	0	181	0	10	7	0	0	11	0	0	0	0	0	0	9	2
Hongos	188	0	0	0	0	0	0	0	0	0	2	0	0	0	0	0	0	0	0	0	0	0	0	695	0	0	0	0	0	0	0	0	0	6	0	0	0	0	0	0	0	0	0	0	0	0
Hormigas	55	0	0	0	0	0	0	0	0	0	0	2	0	0	0	0	0	0	0	0	0	0	0	1150	0	0	0	0	0	0	0	0	0	0	2	0	0	0	0	0	0	0	0	0	0	0
Insectos	1188	2	1	0	1	0	0	0	0	0	0	8	0	0	25	0	0	0	2	0	0	23	0	91695	3	1	0	2	0	0	0	0	0	0	69	0	0	304	0	0	0	8	0	0	296	0
Invertebrados	1340	5	1	2	2	1	0	0	1	0	0	9	0	0	38	0	0	1	2	0	0	32	3	98381	8	1	3	4	6	0	0	6	0	0	71	0	0	407	0	0	2	8	0	0	393	4
Líquenes	138	0	0	0	0	0	0	0	0	0	2	0	0	0	0	0	0	0	0	0	0	0	0	502	0	0	0	0	0	0	0	0	0	6	0	0	0	0	0	0	0	0	0	0	0	0
Magnolias y afines	7	3	0	1	2	0	0	0	0	0	1	0	0	0	5	0	0	0	1	2	0	2	0	33	12	0	1	11	0	0	0	0	0	1	0	0	0	25	0	0	0	1	4	0	20	0
Mamíferos	219	8	0	1	7	24	7	0	12	5	14	5	0	0	175	0	0	0	3	9	6	148	9	8784	156	0	71	85	1570	234	0	337	999	179	34	0	0	6907	0	0	0	74	362	339	6086	46
Mariposas	640	0	0	0	0	0	0	0	0	0	0	0	0	0	11	0	0	0	0	0	0	11	0	13684	0	0	0	0	0	0	0	0	0	0	0	0	0	246	0	0	0	0	0	0	246	0
Microorganismos	188	0	0	0	0	0	0	0	0	0	2	0	0	0	0	0	0	0	0	0	0	0	0	695	0	0	0	0	0	0	0	0	0	6	0	0	0	0	0	0	0	0	0	0	0	0
Moluscos	37	0	0	0	0	0	0	0	0	0	0	0	0	0	1	0	0	1	0	0	0	0	0	926	0	0	0	0	0	0	0	0	0	0	0	0	0	2	0	0	2	0	0	0	0	0
Musgos y afines	404	8	0	0	8	0	0	0	0	0	4	0	0	0	1	0	0	0	0	0	0	1	0	3004	15	0	0	15	0	0	0	0	0	5	0	0	0	5	0	0	0	0	0	0	5	0
Orquídeas	193	8	0	3	5	94	2	0	92	0	35	2	0	0	6	0	0	0	0	0	0	6	0	780	12	0	7	5	212	5	0	207	0	87	7	0	0	15	0	0	0	0	0	0	15	0
Palmas	26	3	0	3	0	0	0	0	0	0	2	0	0	0	3	0	0	0	0	2	0	1	0	4481	4237	0	4237	0	0	0	0	0	0	8	0	0	0	4236	0	0	0	0	4230	0	6	0
Peces	178	16	1	1	14	3	0	0	1	2	90	4	2	0	107	0	0	1	2	6	4	81	13	11601	180	2	5	173	13	0	0	1	12	6574	1168	557	0	8096	0	0	62	6	231	5	7735	57
Pinos y afines	2	0	0	0	0	0	0	0	0	0	0	1	0	0	0	0	0	0	0	0	0	0	0	3	0	0	0	0	0	0	0	0	0	0	2	0	0	0	0	0	0	0	0	0	0	0
Plantas	4618	47	10	14	23	119	2	0	117	0	471	123	3	0	887	1	2	5	29	34	7	797	7	55810	4677	41	4522	114	451	5	0	446	0	3896	871	10	0	18008	5	10	14	431	5513	31	11927	31
Reptiles	138	4	2	1	1	12	1	1	9	1	0	0	0	0	102	0	0	1	0	2	1	92	6	1860	11	5	2	4	143	1	2	89	51	0	0	0	0	1181	0	0	4	0	3	1	1130	43
Vertebrados	1544	74	8	15	51	197	13	1	170	13	131	19	3	89	1307	0	0	6	13	55	50	1154	29	429552	6406	392	904	5110	55682	1045	2	52458	2177	12241	8796	558	30388	406576	0	0	341	144	4264	5179	396499	149
Zamias	2	1	1	0	0	2	0	0	2	0	1	0	0	0	1	0	0	0	0	0	1	0	0	13	12	12	0	0	13	0	0	13	0	12	0	0	0	1	0	0	0	0	0	1	0	0
