grupoTax	category	registros	thematic	taxonRank
Fungi	CR_IUCN	5	threatStatus_UICN	kingdom
Fungi	DD_IUCN	4	threatStatus_UICN	kingdom
Fungi	LC_IUCN	153	threatStatus_UICN	kingdom
Fungi	NT_IUCN	20	threatStatus_UICN	kingdom
Fungi	VU_IUCN	32	threatStatus_UICN	kingdom
Ascomycota	LC_IUCN	43	threatStatus_UICN	phylum
Basidiomycota	CR_IUCN	5	threatStatus_UICN	phylum
Basidiomycota	DD_IUCN	4	threatStatus_UICN	phylum
Basidiomycota	LC_IUCN	110	threatStatus_UICN	phylum
Basidiomycota	NT_IUCN	20	threatStatus_UICN	phylum
Basidiomycota	VU_IUCN	32	threatStatus_UICN	phylum
Agaricomycetes	CR_IUCN	5	threatStatus_UICN	class
Agaricomycetes	DD_IUCN	4	threatStatus_UICN	class
Agaricomycetes	LC_IUCN	110	threatStatus_UICN	class
Agaricomycetes	NT_IUCN	20	threatStatus_UICN	class
Agaricomycetes	VU_IUCN	32	threatStatus_UICN	class
Eurotiomycetes	LC_IUCN	1	threatStatus_UICN	class
Lecanoromycetes	LC_IUCN	42	threatStatus_UICN	class
Agaricales	LC_IUCN	75	threatStatus_UICN	order
Agaricales	NT_IUCN	4	threatStatus_UICN	order
Agaricales	VU_IUCN	22	threatStatus_UICN	order
Boletales	CR_IUCN	5	threatStatus_UICN	order
Boletales	LC_IUCN	30	threatStatus_UICN	order
Boletales	NT_IUCN	16	threatStatus_UICN	order
Boletales	VU_IUCN	6	threatStatus_UICN	order
Caliciales	LC_IUCN	11	threatStatus_UICN	order
Cantharellales	DD_IUCN	4	threatStatus_UICN	order
Cantharellales	LC_IUCN	1	threatStatus_UICN	order
Eurotiales	LC_IUCN	1	threatStatus_UICN	order
Hymenochaetales	LC_IUCN	3	threatStatus_UICN	order
Lecanorales	LC_IUCN	31	threatStatus_UICN	order
Russulales	LC_IUCN	1	threatStatus_UICN	order
Russulales	VU_IUCN	4	threatStatus_UICN	order
Agaricaceae	LC_IUCN	75	threatStatus_UICN	family
Amanitaceae	VU_IUCN	22	threatStatus_UICN	family
Boletaceae	CR_IUCN	5	threatStatus_UICN	family
Boletaceae	NT_IUCN	16	threatStatus_UICN	family
Boletaceae	VU_IUCN	6	threatStatus_UICN	family
Cantharellaceae	DD_IUCN	4	threatStatus_UICN	family
Cantharellaceae	LC_IUCN	1	threatStatus_UICN	family
Elaphomycetaceae	LC_IUCN	1	threatStatus_UICN	family
Hericiaceae	LC_IUCN	1	threatStatus_UICN	family
Hymenochaetaceae	LC_IUCN	3	threatStatus_UICN	family
Parmeliaceae	LC_IUCN	31	threatStatus_UICN	family
Physalacriaceae	NT_IUCN	4	threatStatus_UICN	family
Physciaceae	LC_IUCN	11	threatStatus_UICN	family
Russulaceae	VU_IUCN	4	threatStatus_UICN	family
Suillaceae	LC_IUCN	30	threatStatus_UICN	family
Amanita	VU_IUCN	22	threatStatus_UICN	genus
Austroboletus	CR_IUCN	5	threatStatus_UICN	genus
Cantharellus	LC_IUCN	1	threatStatus_UICN	genus
Clavulina	DD_IUCN	4	threatStatus_UICN	genus
Coprinus	LC_IUCN	56	threatStatus_UICN	genus
Flavoparmelia	LC_IUCN	31	threatStatus_UICN	genus
Fomitiporia	LC_IUCN	3	threatStatus_UICN	genus
Gloiocephala	NT_IUCN	4	threatStatus_UICN	genus
Hericium	LC_IUCN	1	threatStatus_UICN	genus
Lactifluus	VU_IUCN	4	threatStatus_UICN	genus
Leccinum	NT_IUCN	9	threatStatus_UICN	genus
Lycoperdon	LC_IUCN	19	threatStatus_UICN	genus
Phaeophyscia	LC_IUCN	11	threatStatus_UICN	genus
Phylloporus	VU_IUCN	6	threatStatus_UICN	genus
Pseudotulostoma	LC_IUCN	1	threatStatus_UICN	genus
Suillus	LC_IUCN	30	threatStatus_UICN	genus
Tylopilus	NT_IUCN	7	threatStatus_UICN	genus
Amanita fuligineodisca	VU_IUCN	22	threatStatus_UICN	species
Austroboletus amazonicus	CR_IUCN	5	threatStatus_UICN	species
Cantharellus guyanensis	LC_IUCN	1	threatStatus_UICN	species
Clavulina tepurumenga	DD_IUCN	4	threatStatus_UICN	species
Coprinus comatus	LC_IUCN	56	threatStatus_UICN	species
Flavoparmelia caperata	LC_IUCN	31	threatStatus_UICN	species
Fomitiporia bambusarum	LC_IUCN	3	threatStatus_UICN	species
Gloiocephala quercetorum	NT_IUCN	4	threatStatus_UICN	species
Hericium erinaceus	LC_IUCN	1	threatStatus_UICN	species
Lactifluus hallingii	VU_IUCN	4	threatStatus_UICN	species
Leccinum andinum	NT_IUCN	9	threatStatus_UICN	species
Lycoperdon perlatum	LC_IUCN	19	threatStatus_UICN	species
Phaeophyscia hispidula	LC_IUCN	11	threatStatus_UICN	species
Phylloporus fibulatus	VU_IUCN	6	threatStatus_UICN	species
Pseudotulostoma volvatum	LC_IUCN	1	threatStatus_UICN	species
Suillus luteus	LC_IUCN	30	threatStatus_UICN	species
Tylopilus obscurus	NT_IUCN	7	threatStatus_UICN	species
Bacteria	Exótica	4	exotic	kingdom
Chromista	Exótica	129	exotic	kingdom
Ochrophyta	Exótica	129	exotic	phylum
Proteobacteria	Exótica	4	exotic	phylum
Bacillariophyceae	Exótica	124	exotic	class
Gammaproteobacteria	Exótica	4	exotic	class
Phaeophyceae	Exótica	5	exotic	class
Chaetocerotales	Exótica	35	exotic	order
Enterobacterales	Exótica	4	exotic	order
Fragilariales	Exótica	15	exotic	order
Fucales	Exótica	5	exotic	order
Lithodesmiales	Exótica	39	exotic	order
Paraliales	Exótica	19	exotic	order
Triceratiales	Exótica	16	exotic	order
Chaetocerotaceae	Exótica	35	exotic	family
Fragilariaceae	Exótica	15	exotic	family
Lithodesmiaceae	Exótica	39	exotic	family
Paraliaceae	Exótica	19	exotic	family
Sargassaceae	Exótica	5	exotic	family
Triceratiaceae	Exótica	16	exotic	family
Vibrionaceae	Exótica	4	exotic	family
Asterionella	Exótica	15	exotic	genus
Chaetoceros	Exótica	35	exotic	genus
Ditylum	Exótica	39	exotic	genus
Odontella	Exótica	16	exotic	genus
Paralia	Exótica	19	exotic	genus
Turbinaria	Exótica	5	exotic	genus
Vibrio	Exótica	4	exotic	genus
Asterionella glacialis	Exótica	15	exotic	species
Chaetoceros messanensis	Exótica	18	exotic	species
Chaetoceros rostratus	Exótica	11	exotic	species
Chaetoceros tortissimus	Exótica	6	exotic	species
Ditylum brightwellii	Exótica	39	exotic	species
Odontella aurita	Exótica	16	exotic	species
Paralia sulcata	Exótica	19	exotic	species
Turbinaria turbinata	Exótica	5	exotic	species
Vibrio cholerae	Exótica	4	exotic	species
Chromista	Invasora GRIIS	5	isInvasive_griis	kingdom
Ochrophyta	Invasora GRIIS	5	isInvasive_griis	phylum
Phaeophyceae	Invasora GRIIS	5	isInvasive_griis	class
Fucales	Invasora GRIIS	5	isInvasive_griis	order
Sargassaceae	Invasora GRIIS	5	isInvasive_griis	family
Turbinaria	Invasora GRIIS	5	isInvasive_griis	genus
Turbinaria turbinata	Invasora GRIIS	5	isInvasive_griis	species
Fungi	Endémica	885	endemic	kingdom
Ascomycota	Endémica	876	endemic	phylum
Basidiomycota	Endémica	9	endemic	phylum
Agaricomycetes	Endémica	9	endemic	class
Arthoniomycetes	Endémica	46	endemic	class
Dothideomycetes	Endémica	30	endemic	class
Eurotiomycetes	Endémica	13	endemic	class
Lecanoromycetes	Endémica	787	endemic	class
Agaricales	Endémica	9	endemic	order
Arthoniales	Endémica	46	endemic	order
Caliciales	Endémica	77	endemic	order
Eremithallales	Endémica	5	endemic	order
Lecanorales	Endémica	375	endemic	order
Ostropales	Endémica	42	endemic	order
Peltigerales	Endémica	262	endemic	order
Pertusariales	Endémica	29	endemic	order
Pyrenulales	Endémica	13	endemic	order
Teloschistales	Endémica	2	endemic	order
Trypetheliales	Endémica	25	endemic	order
Arthoniaceae	Endémica	25	endemic	family
Caliciaceae	Endémica	77	endemic	family
Cladoniaceae	Endémica	4	endemic	family
Collemataceae	Endémica	14	endemic	family
Gomphillaceae	Endémica	1	endemic	family
Graphidaceae	Endémica	41	endemic	family
Hygrophoraceae	Endémica	9	endemic	family
Lecanoraceae	Endémica	92	endemic	family
Lobariaceae	Endémica	248	endemic	family
Melaspileaceae	Endémica	5	endemic	family
Opegraphaceae	Endémica	3	endemic	family
Parmeliaceae	Endémica	235	endemic	family
Pertusariaceae	Endémica	29	endemic	family
Pilocarpaceae	Endémica	3	endemic	family
Pyrenulaceae	Endémica	13	endemic	family
Ramalinaceae	Endémica	39	endemic	family
Roccellaceae	Endémica	18	endemic	family
Teloschistaceae	Endémica	2	endemic	family
Trypetheliaceae	Endémica	25	endemic	family
Allographa	Endémica	1	endemic	genus
Allophoron	Endémica	2	endemic	genus
Ancistrosporella	Endémica	8	endemic	genus
Anomomorpha	Endémica	5	endemic	genus
Architrypethelium	Endémica	10	endemic	genus
Arthonia	Endémica	19	endemic	genus
Arthothelium	Endémica	2	endemic	genus
Astrothelium	Endémica	13	endemic	genus
Bacidia	Endémica	25	endemic	genus
Bapalmuia	Endémica	3	endemic	genus
Bogoriella	Endémica	2	endemic	genus
Buellia	Endémica	1	endemic	genus
Caloplaca	Endémica	2	endemic	genus
Cladonia	Endémica	4	endemic	genus
Cora	Endémica	6	endemic	genus
Graphina	Endémica	5	endemic	genus
Gyalideopsis	Endémica	1	endemic	genus
Hafellia	Endémica	76	endemic	genus
Hypotrachyna	Endémica	5	endemic	genus
Lecanactis	Endémica	4	endemic	genus
Lecanora	Endémica	92	endemic	genus
Lepra	Endémica	19	endemic	genus
Leptogium	Endémica	14	endemic	genus
Lichenomphalia	Endémica	3	endemic	genus
Lithothelium	Endémica	13	endemic	genus
Lobariella	Endémica	40	endemic	genus
Mazosia	Endémica	2	endemic	genus
Melaspilea	Endémica	5	endemic	genus
Myriotrema	Endémica	2	endemic	genus
Ocellularia	Endémica	1	endemic	genus
Opegrapha	Endémica	3	endemic	genus
Parmotrema	Endémica	227	endemic	genus
Pertusaria	Endémica	10	endemic	genus
Phaeographina	Endémica	1	endemic	genus
Phaeographis	Endémica	15	endemic	genus
Ramalina	Endémica	14	endemic	genus
Relicina	Endémica	3	endemic	genus
Sarcographa	Endémica	3	endemic	genus
Sticta	Endémica	208	endemic	genus
Syncesia	Endémica	4	endemic	genus
Thalloloma	Endémica	2	endemic	genus
Thelotrema	Endémica	6	endemic	genus
Tylophorella	Endémica	4	endemic	genus
Allographa dolichographa	Endémica	1	endemic	species
Allophoron farinosum	Endémica	2	endemic	species
Ancistrosporella leucophila	Endémica	7	endemic	species
Ancistrosporella onchospora	Endémica	1	endemic	species
Anomomorpha aggregans	Endémica	5	endemic	species
Architrypethelium columbianum	Endémica	10	endemic	species
Arthonia excedens	Endémica	2	endemic	species
Arthonia fuscoalbella	Endémica	1	endemic	species
Arthonia miserula	Endémica	2	endemic	species
Arthonia obscurella	Endémica	1	endemic	species
Arthonia polygramma	Endémica	4	endemic	species
Arthonia pruinosula	Endémica	3	endemic	species
Arthonia pulicosa	Endémica	5	endemic	species
Arthonia septemlocularis	Endémica	1	endemic	species
Arthothelium ambiguellum	Endémica	1	endemic	species
Arthothelium xanthocarpum	Endémica	1	endemic	species
Astrothelium leucothelium	Endémica	2	endemic	species
Astrothelium phaeothelium	Endémica	5	endemic	species
Astrothelium scorioides	Endémica	4	endemic	species
Astrothelium thelotremoides	Endémica	2	endemic	species
Bacidia albomaculans	Endémica	5	endemic	species
Bacidia fulgidula	Endémica	3	endemic	species
Bacidia hostheleoides	Endémica	11	endemic	species
Bacidia iodea	Endémica	2	endemic	species
Bacidia ischnospora	Endémica	1	endemic	species
Bacidia melacheila	Endémica	1	endemic	species
Bacidia sororiella	Endémica	2	endemic	species
Bapalmuia araracuarensis	Endémica	3	endemic	species
Bogoriella apposita	Endémica	2	endemic	species
Buellia subjuncta	Endémica	1	endemic	species
Caloplaca russeola	Endémica	2	endemic	species
Cladonia symphoriza	Endémica	4	endemic	species
Cora hirsuta	Endémica	6	endemic	species
Graphina agminalis	Endémica	5	endemic	species
Gyalideopsis chicaque	Endémica	1	endemic	species
Hafellia curatellae	Endémica	75	endemic	species
Hafellia demutans	Endémica	1	endemic	species
Hypotrachyna neoscytodes	Endémica	1	endemic	species
Hypotrachyna paraphyscioides	Endémica	4	endemic	species
Lecanactis proximans	Endémica	4	endemic	species
Lecanora bogotana	Endémica	89	endemic	species
Lecanora mesoxantha	Endémica	3	endemic	species
Lepra acroscyphoides	Endémica	19	endemic	species
Leptogium inversum	Endémica	14	endemic	species
Lichenomphalia aurantiaca	Endémica	2	endemic	species
Lichenomphalia lobata	Endémica	1	endemic	species
Lithothelium polysemum	Endémica	13	endemic	species
Lobariella angustata	Endémica	5	endemic	species
Lobariella ecorticata	Endémica	2	endemic	species
Lobariella flavomedullosa	Endémica	7	endemic	species
Lobariella isidiata	Endémica	2	endemic	species
Lobariella parmelioides	Endémica	7	endemic	species
Lobariella pseudocrenulata	Endémica	4	endemic	species
Lobariella reticulata	Endémica	6	endemic	species
Lobariella sipmanii	Endémica	2	endemic	species
Lobariella soredians	Endémica	5	endemic	species
Mazosia leptosticta	Endémica	2	endemic	species
Melaspilea chionographa	Endémica	1	endemic	species
Melaspilea interalbicans	Endémica	3	endemic	species
Melaspilea opegraphoides	Endémica	1	endemic	species
Myriotrema sphinctrinellum	Endémica	2	endemic	species
Ocellularia gymnocarpa	Endémica	1	endemic	species
Opegrapha microsema	Endémica	3	endemic	species
Parmotrema fractum	Endémica	227	endemic	species
Pertusaria assimilans	Endémica	1	endemic	species
Pertusaria confundens	Endémica	5	endemic	species
Pertusaria pycnophora	Endémica	2	endemic	species
Pertusaria rhodostoma	Endémica	1	endemic	species
Pertusaria tuberculifera	Endémica	1	endemic	species
Phaeographina mesographa	Endémica	1	endemic	species
Phaeographis leucocheila	Endémica	3	endemic	species
Phaeographis lindigiana	Endémica	11	endemic	species
Phaeographis paratypa	Endémica	1	endemic	species
Ramalina bogotensis	Endémica	9	endemic	species
Ramalina erythrantha	Endémica	1	endemic	species
Ramalina interponens	Endémica	1	endemic	species
Ramalina protensa	Endémica	3	endemic	species
Relicina colombiana	Endémica	3	endemic	species
Sarcographa medusulina	Endémica	3	endemic	species
Sticta andreana	Endémica	4	endemic	species
Sticta arbusculotomentosa	Endémica	1	endemic	species
Sticta atroandensis	Endémica	9	endemic	species
Sticta brevior	Endémica	24	endemic	species
Sticta cordillerana	Endémica	5	endemic	species
Sticta gallowayana	Endémica	7	endemic	species
Sticta globulifuliginosa	Endémica	10	endemic	species
Sticta granatensis	Endémica	29	endemic	species
Sticta hirsutofuliginosa	Endémica	7	endemic	species
Sticta jaguirreana	Endémica	3	endemic	species
Sticta laevis	Endémica	1	endemic	species
Sticta lenormandii	Endémica	28	endemic	species
Sticta lumbschiana	Endémica	6	endemic	species
Sticta macrocyphellata	Endémica	3	endemic	species
Sticta macrofuliginosa	Endémica	2	endemic	species
Sticta minutula	Endémica	6	endemic	species
Sticta neolinita	Endémica	3	endemic	species
Sticta neopulmonaria	Endémica	2	endemic	species
Sticta parahumboldtii	Endémica	9	endemic	species
Sticta phyllidiofuliginosa	Endémica	4	endemic	species
Sticta plumbeociliata	Endémica	3	endemic	species
Sticta pseudohumboldtii	Endémica	6	endemic	species
Sticta rhizinata	Endémica	14	endemic	species
Sticta subscrobiculata	Endémica	6	endemic	species
Sticta tunjensis	Endémica	4	endemic	species
Sticta viviana	Endémica	12	endemic	species
Syncesia decussans	Endémica	3	endemic	species
Syncesia flavescens	Endémica	1	endemic	species
Thalloloma haemographum	Endémica	2	endemic	species
Thelotrema leucocarpoides	Endémica	6	endemic	species
Tylophorella pyrenocarpoides	Endémica	4	endemic	species
