grupo_id	especies	especies_amenazadas_nacional	especies_amenazadas_nacional_cr	especies_amenazadas_nacional_en	especies_amenazadas_nacional_vu	especies_cites	especies_cites_i	especies_cites_i_ii	especies_cites_ii	especies_cites_iii	especies_endemicas	especies_exoticas	especies_invasoras	especies_migratorias	especies_amenazadas_global	especies_amenazadas_global_ex	especies_amenazadas_global_ew	especies_amenazadas_global_cr	especies_amenazadas_global_en	especies_amenazadas_global_vu	especies_amenazadas_global_nt	especies_amenazadas_global_lc	especies_amenazadas_global_dd	registros	registros_amenazadas_nacional	registros_amenazadas_nacional_cr	registros_amenazadas_nacional_en	registros_amenazadas_nacional_vu	registros_cites	registros_cites_i	registros_cites_i_ii	registros_cites_ii	registros_cites_iii	registros_endemicas	registros_exoticas	registros_invasoras	registros_migratorias	registros_amenazadas_global	registros_amenazadas_global_ex	registros_amenazadas_global_ew	registros_amenazadas_global_cr	registros_amenazadas_global_en	registros_amenazadas_global_vu	registros_amenazadas_global_nt	registros_amenazadas_global_lc	registros_amenazadas_global_dd
abejas	341	8	3	2	3	0	0	0	0	0	0	1	0	0	10	0	0	0	0	0	0	4	6	21257	257	73	4	180	0	0	0	0	0	0	1271	0	0	525	0	0	0	0	0	0	197	328
algas	316	0	0	0	0	0	0	0	0	0	0	0	0	0	1	0	0	0	0	0	0	1	0	10179	0	0	0	0	0	0	0	0	0	0	0	0	0	9	0	0	0	0	0	0	9	0
anfibios	870	48	13	22	13	35	0	0	35	0	0	2	1	0	640	0	0	60	102	78	41	325	34	143456	4133	2153	590	1390	11332	0	0	11332	0	0	1397	339	0	106468	0	0	7679	5406	7354	7829	76922	1278
angiospermas	25870	615	92	226	297	1908	6	0	1901	1	5240	228	4	0	4007	2	5	140	272	216	89	3139	86	2041477	29060	1832	11662	15566	19715	134	0	19487	94	150915	61094	721	0	582720	51	1659	1612	10496	16761	4492	540711	1723
animales	27772	422	51	138	233	625	43	1	551	30	458	100	13	154	5816	1	0	105	187	304	228	4586	400	8438863	148746	18150	39490	91106	1064889	18030	50	1002361	44448	160627	86927	3408	672639	7057896	4	0	14215	25681	86900	122147	6798307	8671
antocerotas	11	0	0	0	0	0	0	0	0	0	1	0	0	0	0	0	0	0	0	0	0	0	0	191	0	0	0	0	0	0	0	0	0	1	0	0	0	0	0	0	0	0	0	0	0	0
aracnidos	1115	7	0	3	4	0	0	0	0	0	0	4	0	0	1	0	0	0	0	0	0	1	0	21779	191	0	36	155	0	0	0	0	0	0	193	0	0	2	0	0	0	0	0	0	2	0
archaea	10	0				0					0	0			0									827	0				0					0	0			0								
aves	2115	131	15	54	62	317	10	0	293	14	80	24	0	154	1769	1	0	15	26	71	97	1556	3	7205983	118640	8007	35963	74670	1014866	10070	0	969335	35461	128924	76797	0	672639	6674199	4	0	3308	16238	67661	109527	6477297	164
bacterias	731	0				0					0	0			0									89418	0				0					0	0			0								
bromelias-labiadas-pasifloras	1057	221	43	83	95	0	0	0	0	0	294	4	0	0	131	0	0	11	17	10	1	87	5	51482	3078	415	1078	1585	0	0	0	0	0	9519	259	0	0	8441	0	0	158	158	632	20	7450	23
chromista	987	0	0	0	0	0	0	0	0	0	0	5	0	0	0	0	0	0	0	0	0	0	0	85776	0	0	0	0	0	0	0	0	0	0	42	0	0	0	0	0	0	0	0	0	0	0
corales	191	6	1	1	4	109	0	0	109	0	0	0	0	0	69	0	0	2	2	8	3	50	4	4484	306	100	76	130	3587	0	0	3587	0	0	0	0	0	2583	0	0	176	171	163	32	2005	36
crustaceos	1465	21	0	16	5	0	0	0	0	0	0	2	1	0	114	0	0	1	0	7	1	72	33	18982	445	0	86	359	0	0	0	0	0	0	52	2	0	1653	0	0	1	0	15	2	1266	369
decapodos	1029	21	0	16	5	0	0	0	0	0	0	2	1	0	114	0	0	1	0	7	1	72	33	9424	445	0	86	359	0	0	0	0	0	0	52	2	0	1653	0	0	1	0	15	2	1266	369
dipteros	1336	0	0	0	0	0	0	0	0	0	0	4	0	0	0	0	0	0	0	0	0	0	0	87787	0	0	0	0	0	0	0	0	0	0	414	0	0	0	0	0	0	0	0	0	0	0
epifitas	2901	112	16	43	53	793	0	0	793	0	1037	1	0	0	158	0	0	11	14	17	9	100	7	98127	861	248	327	286	7812	0	0	7812	0	13200	19	0	0	11990	0	0	84	152	567	324	10816	47
equinodermos	327	0	0	0	0	1	0	0	0	1	0	0	0	0	27	0	0	0	1	0	0	23	3	6056	0	0	0	0	2	0	0	0	2	0	0	0	0	172	0	0	0	2	0	0	124	46
escarabajos	2128	3	0	1	2	0	0	0	0	0	0	2	0	0	32	0	0	0	1	0	2	23	6	154173	83	0	28	55	0	0	0	0	0	0	316	0	0	4275	0	0	0	33	0	96	4098	48
especies-maderables	28	26	8	11	7	4	0	0	3	1	9	0	0	0	20	0	0	1	9	5	0	4	0	6407	6287	583	1765	3939	245	0	0	151	94	363	0	0	0	5711	0	0	32	1270	552	0	3720	0
esponjas	204	0				0					0	0			0									946	0				0					0	0			0								
fanerogamas	293	53	6	18	29	0	0	0	0	0	27	0	0	0	89	0	0	0	6	15	0	61	1	22777	1178	164	435	579	0	0	0	0	0	548	0	0	0	10595	0	0	0	51	744	0	9012	22
frailejones	93	33	6	15	12	0	0	0	0	0	70	0	0	0	79	0	0	13	24	14	4	19	5	22093	3516	276	1854	1386	0	0	0	0	0	16701	0	0	0	20297	0	0	253	1842	1953	918	15301	30
gimnospermas	85	25	8	9	8	22	1	0	21	0	11	8	0	0	29	0	0	6	1	3	10	8	1	22404	1545	143	485	917	792	23	0	769	0	473	19124	0	0	2077	0	0	138	28	839	325	737	10
helechos	1615	0	0	0	0	66	0	0	66	0	76	4	0	0	12	0	0	0	0	0	0	12	0	113320	0	0	0	0	27040	0	0	27040	0	737	1282	0	0	906	0	0	0	0	0	0	906	0
hepaticas	829	45	2	1	42	0	0	0	0	0	28	0	0	0	3	0	0	0	1	0	0	2	0	42929	406	4	83	319	0	0	0	0	0	330	0	0	0	223	0	0	0	3	0	0	220	0
hongos	3333	0	0	0	0	0	0	0	0	0	58	0	0	0	13	0	0	1	0	2	3	7	0	53114	0	0	0	0	0	0	0	0	0	317	0	0	0	137	0	0	2	0	23	20	92	0
hormigas	891	2	0	0	2	0	0	0	0	0	0	7	1	0	0	0	0	0	0	0	0	0	0	66930	4	0	0	4	0	0	0	0	0	0	2462	1540	0	0	0	0	0	0	0	0	0	0
insectos	12173	20	3	9	8	0	0	0	0	0	0	17	1	0	174	0	0	1	4	2	4	145	18	557966	395	73	80	242	0	0	0	0	0	0	4471	1540	0	6965	0	0	3	51	9	117	6375	410
invertebrados	19352	68	4	29	35	132	0	0	131	1	0	34	4	0	469	0	0	5	8	19	8	359	70	671838	3785	173	278	3334	4650	0	0	4648	2	0	5025	1759	0	12409	0	0	199	237	198	151	10707	917
liquenes	1592	0	0	0	0	0	0	0	0	0	54	0	0	0	2	0	0	0	0	0	0	2	0	39504	0	0	0	0	0	0	0	0	0	308	0	0	0	33	0	0	0	0	0	0	33	0
magnolias-afines	128	45	15	20	10	0	0	0	0	0	37	0	0	0	78	0	0	13	20	2	2	41	0	16939	6806	237	638	5931	0	0	0	0	0	1279	0	0	0	7111	0	0	200	635	542	60	5674	0
mamiferos	571	32	3	8	21	81	25	0	49	7	43	17	0	0	429	0	0	4	12	40	17	312	44	138480	4897	705	701	3491	21886	5282	0	8625	7979	4994	1229	0	0	114737	0	0	868	864	6845	1922	101846	2392
mamiferos-marinos	17	5	0	3	2	17	6	0	11	0	0	0	0	0	16	0	0	0	0	2	1	13	0	269	197	0	175	22	265	200	0	65	0	0	0	0	0	263	0	0	0	0	173	6	84	0
mangles	7	1	0	1	0	0	0	0	0	0	0	0	0	0	6	0	0	0	0	1	0	5	0	1360	43	0	43	0	0	0	0	0	0	0	0	0	0	1318	0	0	0	0	43	0	1275	0
mariposas	4114	5	0	4	1	0	0	0	0	0	0	0	0	0	29	0	0	0	0	0	0	29	0	87845	49	0	46	3	0	0	0	0	0	0	0	0	0	1083	0	0	0	0	0	0	1083	0
medusas	86	0	0	0	0	4	0	0	4	0	0	0	0	0	3	0	0	0	1	0	0	2	0	875	0	0	0	0	197	0	0	197	0	0	0	0	0	163	0	0	0	13	0	0	150	0
moluscos	2872	13	0	0	13	1	0	0	1	0	0	9	2	0	81	0	0	1	0	2	0	66	12	29660	2430	0	0	2430	709	0	0	709	0	0	301	217	0	871	0	0	19	0	11	0	785	56
musgos	1114	39	6	3	30	0	0	0	0	0	49	0	0	0	0	0	0	0	0	0	0	0	0	75635	374	49	14	311	0	0	0	0	0	478	0	0	0	0	0	0	0	0	0	0	0	0
no-vasculares	2244	84	8	4	72	0	0	0	0	0	78	0	0	0	4	0	0	0	1	0	0	3	0	125909	780	53	97	630	0	0	0	0	0	809	0	0	0	232	0	0	0	3	0	0	229	0
orquideas	3194	186	5	59	122	1864	6	0	1858	0	1065	3	0	0	70	0	0	5	5	1	0	49	10	48150	1814	191	642	981	16992	134	0	16858	0	5782	254	0	0	1014	0	0	10	54	1	0	929	20
palmas	311	53	7	22	24	0	0	0	0	0	44	4	0	0	37	0	0	2	5	6	1	13	1	134615	6426	115	4448	1863	0	0	0	0	0	2477	287	0	0	9800	0	0	163	449	2817	36	5098	14
pastos-marinos	4	0	0	0	0	0	0	0	0	0	0	0	0	0	3	0	0	0	0	0	0	3	0	36	0	0	0	0	0	0	0	0	0	0	0	0	0	31	0	0	0	0	0	0	31	0
peces	4046	102	6	9	87	22	1	0	15	6	335	17	8	0	2045	0	0	11	28	76	47	1693	190	196110	8774	2098	342	6334	856	1	0	117	738	26709	1927	1310	0	96679	0	0	359	2241	1620	1856	87179	3424
peces-dulceacuicolas	1441	52	2	3	47	7	0	0	1	6	334	0	0	0	368	0	0	2	14	19	17	226	90	91482	6013	2050	141	3822	742	0	0	4	738	26708	0	0	0	36296	0	0	256	2167	845	549	30499	1980
peces-marinos	847	11	1	2	8	4	0	0	4	0	0	0	0	0	703	0	0	1	4	15	9	645	29	30660	146	8	70	68	17	0	0	17	0	0	0	0	0	29279	0	0	6	27	100	992	27531	623
pinos-afines	47	0	0	0	0	0	0	0	0	0	0	8	0	0	3	0	0	0	0	0	0	3	0	20128	0	0	0	0	0	0	0	0	0	0	19124	0	0	140	0	0	0	0	0	0	140	0
plantas	30014	724	108	239	377	1996	7	0	1988	1	5421	240	4	0	4056	2	5	146	274	219	99	3165	88	2326717	31385	2028	12244	17113	47547	157	0	47296	94	153171	81500	721	0	586251	51	1659	1750	10527	17600	4817	542782	1850
protozoos	143	0				0					0	0			0									2027	0				0					0	0			0								
tortugas-marinas	5	5	3	1	1	5	5	0	0	0	0	0	0	0	5	0	0	1	1	3	0	0	0	2637	2635	1881	562	192	2635	2635	0	0	0	0	0	0	0	2635	0	0	256	562	1817	0	0	0
vasculares	27768	640	100	235	305	1996	7	0	1988	1	5343	240	4	0	4052	2	5	146	273	219	99	3162	88	2193533	30605	1975	12147	16483	47547	157	0	47296	94	152362	81500	721	0	586019	51	1659	1750	10524	17600	4817	542553	1850
vertebrados	8401	354	47	109	198	493	43	1	420	29	458	66	9	154	5347	1	0	100	179	285	220	4227	330	7761420	144961	17977	39212	87772	1060239	18030	50	997713	44446	160627	81902	1649	672639	7045487	4	0	14016	25444	86702	121996	6787600	7754
virus	8	0	0	0	0	0	0	0	0	0	0	1	0	0	0	0	0	0	0	0	0	0	0	540	0	0	0	0	0	0	0	0	0	0	6	0	0	0	0	0	0	0	0	0	0	0
zamias	27	21	8	9	4	22	1	0	21	0	11	0	0	0	18	0	0	6	1	1	9	0	1	895	796	143	485	168	792	23	0	769	0	473	0	0	0	764	0	0	138	28	297	291	0	10
