stateProvince	especies	especies_amenazadas_nacional	especies_amenazadas_nacional_cr	especies_amenazadas_nacional_en	especies_amenazadas_nacional_vu	especies_cites	especies_cites_i	especies_cites_i_ii	especies_cites_ii	especies_cites_iii	especies_endemicas	especies_exoticas	especies_invasoras	especies_migratorias	especies_amenazadas_global	especies_amenazadas_global_ex	especies_amenazadas_global_ew	especies_amenazadas_global_cr	especies_amenazadas_global_en	especies_amenazadas_global_vu	especies_amenazadas_global_nt	especies_amenazadas_global_lc	especies_amenazadas_global_dd	registros	registros_amenazadas_nacional	registros_amenazadas_nacional_cr	registros_amenazadas_nacional_en	registros_amenazadas_nacional_vu	registros_cites	registros_cites_i	registros_cites_i_ii	registros_cites_ii	registros_cites_iii	registros_endemicas	registros_exoticas	registros_invasoras	registros_migratorias	registros_amenazadas_global	registros_amenazadas_global_ex	registros_amenazadas_global_ew	registros_amenazadas_global_cr	registros_amenazadas_global_en	registros_amenazadas_global_vu	registros_amenazadas_global_nt	registros_amenazadas_global_lc	registros_amenazadas_global_dd
Amazonas	9238	61	5	14	42	281	17		252	12	158	90	1	60	2667		2	3	11	42	39	2510	35	187579	2284	1686	347	251	16403	327		15358	718	479	989	21	3846	93165		2	27	91	1379	875	88449	348
Antioquia	17891	401	47	133	221	1097	28	1	1048	20	2037	253	13	114	4375	2	4	66	168	221	145	3627	110	1147042	19608	1910	7002	10696	105354	2433	2	98061	4858	39889	12481	154	87402	873313	18	53	2066	4119	14409	11214	839585	860
Arauca	4112	37	6	10	21	213	10		187	16	106	75	1	71	1445			3	10	22	24	1373	7	64410	266	15	42	209	4581	153		4095	333	471	560	1	1748	33315			3	70	117	254	32729	19
Archipiélago de San Andrés, Providencia y Santa Catalina	2121	58	9	12	37	80	4		75	1	10	43	1	117	856			7	6	25	23	772	23	52646	2809	490	364	1955	3201	233		2967	1	473	391	69	8453	35163			182	231	1200	1018	32149	383
Atlántico	2396	35	3	10	22	114	5	1	98	10	45	70	2	90	977			3	10	16	22	912	11	50105	332	47	96	189	5578	98	3	5246	231	973	881	3	4845	41717			94	33	82	232	41187	76
Bogotá, D.C.	6853	177	20	62	95	423	12		400	11	512	179	8	94	1597		5	14	39	50	53	1419	10	254021	4673	903	2536	1234	24824	136		24289	399	8940	8511	259	32722	186469		123	34	1628	587	3725	180275	87
Bolívar	5766	120	15	34	71	240	20	1	204	15	210	117	5	110	2094		1	15	32	54	50	1889	35	176015	3842	1626	679	1537	16323	568	3	14708	1044	2890	4348	26	11665	127507		1	986	965	957	1107	123033	358
Boyacá	9761	188	21	65	102	459	10		434	15	925	151	10	93	2551	1	3	36	73	107	59	2223	42	350925	7549	1167	2948	3434	27742	140		26405	1197	22456	2711	226	17497	205451	4	73	814	2356	4134	6257	191577	208
Caldas	8064	151	15	51	85	319	11		298	10	721	201	7	90	2563	1	3	14	59	117	76	2231	48	811709	14263	870	5081	8312	112213	1029		110428	756	15636	9494	74	56744	697109	4	30	226	989	8889	4668	681944	251
Caquetá	9616	67	8	19	40	327	12		306	9	304	100	1	67	2941		1	9	25	59	47	2733	39	237425	741	41	67	633	11851	169		11202	480	1802	966	2	4233	92663		1	58	54	1240	1258	89407	215
Casanare	4773	50	5	12	33	233	10		207	16	120	83	3	82	1827			4	13	36	34	1715	14	213472	1665	50	63	1552	26045	1070		21308	3667	691	3489	25	12086	160723			15	66	443	2216	157839	93
Cauca	10702	174	17	57	100	650	18		618	14	1013	126	5	112	3064		4	29	62	127	108	2665	55	221468	3794	681	1259	1854	20810	1019		19133	658	6076	1869	16	9053	140170		73	268	1608	2399	2104	133303	349
Cesar	3264	73	9	24	40	198	10		175	13	200	76	3	76	1481		2	9	19	39	33	1356	15	87926	1882	244	381	1257	10508	286		9742	480	1282	574	19	4558	66751		5	159	624	1528	688	63597	96
Chocó	11419	231	23	57	151	615	24	1	573	17	1041	110	2	114	3695		3	23	62	136	117	3224	101	323957	8346	1690	1093	5563	30672	2106	1	26238	2327	11284	1617	16	19055	188224		9	3232	479	6734	7975	168374	881
Cundinamarca	13315	237	31	69	137	672	18		639	15	1155	236	10	97	2857		5	31	74	107	78	2508	44	829361	14702	3049	7433	4220	73045	1485		70782	778	38449	59112	398	43817	520155		463	482	6044	6411	9464	496927	271
Córdoba	4043	98	12	22	64	228	15	1	197	15	142	90	4	103	1811	1	1	12	18	52	49	1641	24	114065	2622	300	530	1792	12477	495	1	11260	721	1247	1624	39	15798	92944	1	1	453	66	490	1077	90673	134
Guainía	3552	21	1	2	18	166	9		150	7	42	36	3	51	1291			1	4	15	18	1238	5	92153	160	1	3	156	7610	282		7067	261	166	365	5	2597	43641			2	7	648	738	42165	24
Guaviare	4064	22	3	5	14	176	8		162	6	73	43	3	57	1620			1	2	20	19	1559	8	64043	83	6	17	60	6655	168		6182	305	302	471	12	2380	46077			10	2	376	467	45121	20
Huila	5945	84	9	25	50	322	9		299	14	472	98	8	73	1845		4	8	29	60	56	1653	25	176776	2823	163	246	2414	17875	133		17162	580	5510	3032	1462	8230	128218		17	53	594	1585	2024	123748	114
La Guajira	3966	70	10	21	39	228	14		201	13	127	58	2	119	1670			7	25	44	37	1530	26	225355	6029	92	1738	4199	26596	456		24732	1408	584	2387	3	31409	195284			72	246	314	3248	191182	221
Magdalena	10544	175	25	54	96	416	16	1	386	13	586	147	8	124	2688		3	19	56	76	72	2399	56	629872	18809	652	3159	14998	73396	997	16	70544	1839	39801	4155	122	68158	481733		13	1023	3515	8621	17646	449975	892
Meta	15979	243	32	79	132	611	25		569	17	1933	162	5	95	4149	1	4	49	125	163	112	3597	64	564586	3972	164	2192	1616	59717	698		53713	5306	8030	6961	33	31243	418637	1	117	175	541	4614	5940	405916	1085
Nariño	9421	144	13	56	75	415	12		395	8	566	130	4	104	2520		5	13	52	94	86	2215	42	604665	8233	380	1126	6727	43215	130		42133	952	14419	1718	10	11094	284583		237	1752	1165	4665	3058	272106	901
Norte de Santander	5696	118	13	46	59	366	11		342	13	523	86	6	68	1821		2	13	46	53	35	1635	28	60428	923	56	393	474	3566	35		3430	101	2512	361	9	1748	29284		2	46	555	615	561	27365	123
Putumayo	7316	96	7	33	56	415	16		390	9	297	87	4	76	2411		5	7	21	58	53	2225	27	211833	1414	63	346	1005	26848	103		24651	2094	1219	1561	7	10751	174132		162	21	75	2574	2294	168768	177
Quindío	4595	81	7	26	48	216	8		203	5	375	119	4	66	1503		2	4	36	67	45	1321	22	212118	2851	180	781	1890	22646	266		22022	358	3596	3102	9	12254	161823		15	115	830	1409	926	158408	96
Risaralda	6645	121	9	39	73	360	12		336	12	539	98	3	77	1972		2	19	47	83	68	1720	26	545545	18304	425	4375	13504	74791	390		73136	1265	18708	4212	70	31525	454618		17	453	2889	10729	11365	429013	107
Santander	10830	231	32	88	111	523	20	1	490	12	1081	194	10	84	2882		3	40	95	124	71	2471	63	315429	6105	1116	2192	2797	28294	168	3	27321	802	13508	3582	111	16295	195591		20	922	2078	5079	3506	183458	372
Sucre	2736	57	7	18	32	147	11	1	122	13	71	79	3	84	1224			5	15	22	21	1135	17	96503	994	101	380	513	7752	146	4	7286	316	949	2649	16	8031	65634			119	79	338	667	64307	76
Tolima	7496	120	17	28	75	310	13	1	282	14	603	127	7	85	2149	1	2	12	45	81	50	1914	40	472813	5252	159	1191	3902	39752	691	3	37282	1776	16490	6163	568	20979	288657	5	10	200	571	2952	3382	281334	180
Valle del Cauca	14754	248	24	70	154	631	24		591	16	1394	217	9	121	4021		3	58	104	193	132	3406	98	1118042	9162	972	1843	6347	136256	487		128768	7001	20677	12445	129	68348	895881		23	1003	2322	5264	12875	873396	518
Vaupés	5653	33	3	3	27	217	9		200	8	134	38	1	62	1912			3	6	21	28	1824	11	128027	98	3	10	85	15491	604		14436	451	597	328	1	4087	94678			13	18	1119	1488	91908	25
Vichada	4229	37	2	7	28	197	13		168	16	55	43	1	65	1544		1	1	5	20	21	1477	7	79032	679	115	193	371	6823	209		5804	810	339	503	1	2485	42333		1	3	30	480	812	40850	11
