taxonID	taxonMatchType	scientificName	species	verbatimSpecies	acceptedScientificName	canonicalNameSuggested	scientificNameAuthorship	scientificNameAuthorshipValidation	scientificNameAuthorshipSuggested	taxonRankSuggested	taxonomicStatusSuggested	kingdom	kingdomValidation	kingdomSuggested	phylum	phylumValidation	phylumSuggested	class	classValidation	classSuggested	order	orderValidation	orderSuggested	family	familyValidation	familySuggested	genus	genusValidation	genusSuggested	specificEpithet	specificEpithetValidation	specificEpithetSuggested	callAPI	NomAPI	acceptedNameUsage	taxonRank	taxonomicStatus	taxonRemarks	vernacularName	habitat	isInvasive_mads	isFreshwater	isTerrestrial	isMarine
gbif.org/species/5190508	EXACT	Cornu aspersum	Cornu aspersum	Cornu aspersum	Cornu aspersum	Cornu aspersum	(O.F.Müller, 1774)	1	(O.F.Müller, 1774)	SPECIES	ACCEPTED	Animalia	1	Animalia	Mollusca	1	Mollusca	Gastropoda	1	Gastropoda	Stylommatophora	1	Stylommatophora	Helicidae	1	Helicidae	Cornu	1	Cornu	aspersum	1	aspersum	"{""usageKey"":5858758,""scientificName"":""Cornu aspersum (O.F.Müller, 1774)"",""canonicalName"":""Cornu aspersum"",""rank"":""SPECIES"",""status"":""ACCEPTED"",""confidence"":100,""matchType"":""EXACT"",""kingdom"":""Animalia"",""phylum"":""Mollusca"",""order"":""Stylommatophora"",""family"":""Helicidae"",""genus"":""Cornu"",""species"":""Cornu aspersum"",""kingdomKey"":1,""phylumKey"":52,""classKey"":225,""orderKey"":1456,""familyKey"":6540,""genusKey"":3246540,""speciesKey"":5858758,""synonym"":false,""class"":""Gastropoda""}"	Cornu%20aspersum	Cornu aspersum	Especie	Aceptado	Nombre original de la especie en la resolución 207 de 2010: Helix aspersa	Caracol de Tierra	Terrestre	Invasora_MADS	FALSE	TRUE	FALSE
gbif.org/species/4374758	EXACT	Electroma	Electroma	Electroma		Electroma	Stoliczka, 1871	1	Stoliczka, 1871	GENUS	ACCEPTED	Animalia	1	Animalia	Mollusca	1	Mollusca	Bivalvia	1	Bivalvia	Ostreida	1	Ostreida	Vulsellidae	1	Vulsellidae	Electroma	1	Electroma		1		"{""usageKey"":4374758,""scientificName"":""Electroma Stoliczka, 1871"",""canonicalName"":""Electroma"",""rank"":""GENUS"",""status"":""ACCEPTED"",""confidence"":98,""matchType"":""EXACT"",""kingdom"":""Animalia"",""phylum"":""Mollusca"",""order"":""Ostreida"",""family"":""Vulsellidae"",""genus"":""Electroma"",""kingdomKey"":1,""phylumKey"":52,""classKey"":137,""orderKey"":9485611,""familyKey"":4592429,""genusKey"":4374758,""synonym"":false,""class"":""Bivalvia""}"	Electroma		Género	Aceptado	Nombre original de la especie en la resolución 207 de 2010: Electroma sp.	Mejillón	Marino	Invasora_MADS	FALSE	FALSE	TRUE
gbif.org/species/1325576	EXACT	Paratrechina fulva	Paratrechina fulva	Paratrechina fulva	Paratrechina fulva	Paratrechina fulva	(Mayr, 1862)	1	(Mayr, 1862)	SPECIES	ACCEPTED	Animalia	1	Animalia	Arthropoda	1	Arthropoda	Insecta	1	Insecta	Hymenoptera	1	Hymenoptera	Formicidae	1	Formicidae	Paratrechina	1	Paratrechina	fulva	1	fulva	"{""usageKey"":1325576,""scientificName"":""Paratrechina fulva (Mayr, 1862)"",""canonicalName"":""Paratrechina fulva"",""rank"":""SPECIES"",""status"":""ACCEPTED"",""confidence"":100,""matchType"":""EXACT"",""kingdom"":""Animalia"",""phylum"":""Arthropoda"",""order"":""Hymenoptera"",""family"":""Formicidae"",""genus"":""Paratrechina"",""species"":""Paratrechina fulva"",""kingdomKey"":1,""phylumKey"":54,""classKey"":216,""orderKey"":1457,""familyKey"":4342,""genusKey"":1325421,""speciesKey"":1325576,""synonym"":false,""class"":""Insecta""}"	Paratrechina%20fulva	Paratrechina fulva	Especie	Aceptado	Nombre original de la especie en la resolución 207 de 2010: Paratrechina fulva	Hormiga loca	Terrestre	Invasora_MADS			
gbif.org/species/2295966	EXACT	Achatina fulica	Achatina fulica	Achatina fulica	Lissachatina fulica	Achatina fulica	Bowdich, 1822	0	(Bowdich, 1822)	SPECIES	SYNONYM	Animalia	1	Animalia	Mollusca	1	Mollusca	Gastropoda	1	Gastropoda	Stylommatophora	1	Stylommatophora	Achatinidae	1	Achatinidae	Achatina	1	Achatina	fulica	1	fulica	"{""usageKey"":2295966,""acceptedUsageKey"":8790531,""scientificName"":""Achatina fulica (Bowdich, 1822)"",""canonicalName"":""Achatina fulica"",""rank"":""SPECIES"",""status"":""SYNONYM"",""confidence"":100,""note"":""3 synonym homonyms"",""matchType"":""EXACT"",""kingdom"":""Animalia"",""phylum"":""Mollusca"",""order"":""Stylommatophora"",""family"":""Achatinidae"",""genus"":""Lissachatina"",""species"":""Lissachatina fulica"",""kingdomKey"":1,""phylumKey"":52,""classKey"":225,""orderKey"":1456,""familyKey"":2630,""genusKey"":4598166,""speciesKey"":8790531,""synonym"":true,""class"":""Gastropoda""}"	Achatina%20fulica	Lissachatina fulica	Especie	Sinónimo	Nombre original de la especie en la resolución 207 de 2010: Achatina áulica	Caracol Gigante Africano	Terrestre	Invasora_MADS	FALSE	TRUE	FALSE
gbif.org/species/2225632	EXACT	Charybdis hellerii	Charybdis hellerii	Charybdis hellerii	Charybdis hellerii	Charybdis hellerii	(A.Milne-Edwards, 1867)	1	(A.Milne-Edwards, 1867)	SPECIES	ACCEPTED	Animalia	1	Animalia	Arthropoda	1	Arthropoda	Malacostraca	1	Malacostraca	Decapoda	1	Decapoda	Portunidae	1	Portunidae	Charybdis	1	Charybdis	hellerii	1	hellerii	"{""usageKey"":2225632,""scientificName"":""Charybdis hellerii (A.Milne-Edwards, 1867)"",""canonicalName"":""Charybdis hellerii"",""rank"":""SPECIES"",""status"":""ACCEPTED"",""confidence"":100,""matchType"":""EXACT"",""kingdom"":""Animalia"",""phylum"":""Arthropoda"",""order"":""Decapoda"",""family"":""Portunidae"",""genus"":""Charybdis"",""species"":""Charybdis hellerii"",""kingdomKey"":1,""phylumKey"":54,""classKey"":229,""orderKey"":637,""familyKey"":11222513,""genusKey"":2225626,""speciesKey"":2225632,""synonym"":false,""class"":""Malacostraca""}"	Charybdis%20hellerii	Charybdis hellerii	Especie	Aceptado	Nombre original de la especie en la resolución 207 de 2010: Charybdis halleri	Jaiba azul	Marino	Invasora_MADS	FALSE	TRUE	TRUE
gbif.org/species/2225643	EXACT	Callinectes exasperatus	Callinectes exasperatus	Callinectes exasperatus	Callinectes exasperatus	Callinectes exasperatus	(Gerstaecker, 1856)	1	(Gerstaecker, 1856)	SPECIES	ACCEPTED	Animalia	1	Animalia	Arthropoda	1	Arthropoda	Malacostraca	1	Malacostraca	Decapoda	1	Decapoda	Portunidae	1	Portunidae	Callinectes	1	Callinectes	exasperatus	1	exasperatus	"{""usageKey"":2225643,""scientificName"":""Callinectes exasperatus (Gerstaecker, 1856)"",""canonicalName"":""Callinectes exasperatus"",""rank"":""SPECIES"",""status"":""ACCEPTED"",""confidence"":100,""matchType"":""EXACT"",""kingdom"":""Animalia"",""phylum"":""Arthropoda"",""order"":""Decapoda"",""family"":""Portunidae"",""genus"":""Callinectes"",""species"":""Callinectes exasperatus"",""kingdomKey"":1,""phylumKey"":54,""classKey"":229,""orderKey"":637,""familyKey"":11222513,""genusKey"":2225641,""speciesKey"":2225643,""synonym"":false,""class"":""Malacostraca""}"	Callinectes%20exasperatus	Callinectes exasperatus	Especie	Aceptado	Nombre original de la especie en la resolución 207 de 2010: Callinectes exasperatus	Jaiba	Marino	Invasora_MADS			TRUE
gbif.org/species/8406925	EXACT	Penaeus monodon	Penaeus monodon	Penaeus monodon	Penaeus monodon	Penaeus monodon	Fabricius, 1798	1	Fabricius, 1798	SPECIES	ACCEPTED	Animalia	1	Animalia	Arthropoda	1	Arthropoda	Malacostraca	1	Malacostraca	Decapoda	1	Decapoda	Penaeidae	1	Penaeidae	Penaeus	1	Penaeus	monodon	1	monodon	"{""usageKey"":8406925,""scientificName"":""Penaeus monodon Fabricius, 1798"",""canonicalName"":""Penaeus monodon"",""rank"":""SPECIES"",""status"":""ACCEPTED"",""confidence"":100,""matchType"":""EXACT"",""kingdom"":""Animalia"",""phylum"":""Arthropoda"",""order"":""Decapoda"",""family"":""Penaeidae"",""genus"":""Penaeus"",""species"":""Penaeus monodon"",""kingdomKey"":1,""phylumKey"":54,""classKey"":229,""orderKey"":637,""familyKey"":4551,""genusKey"":2223152,""speciesKey"":8406925,""synonym"":false,""class"":""Malacostraca""}"	Penaeus%20monodon	Penaeus monodon	Especie	Aceptado	Nombre original de la especie en la resolución 207 de 2010: Penaeus Monodon	Camarón de Asia o Camarón Jumbo	Marino	Invasora_MADS	FALSE	FALSE	TRUE
gbif.org/species/2424091	EXACT	Eleutherodactylus coqui	Eleutherodactylus coqui	Eleutherodactylus coqui	Eleutherodactylus coqui	Eleutherodactylus coqui	Thomas, 1966	1	Thomas, 1966	SPECIES	ACCEPTED	Animalia	1	Animalia	Chordata	1	Chordata	Amphibia	1	Amphibia	Anura	1	Anura	Eleutherodactylidae	1	Eleutherodactylidae	Eleutherodactylus	1	Eleutherodactylus	coqui	1	coqui	"{""usageKey"":2424091,""scientificName"":""Eleutherodactylus coqui Thomas, 1966"",""canonicalName"":""Eleutherodactylus coqui"",""rank"":""SPECIES"",""status"":""ACCEPTED"",""confidence"":100,""matchType"":""EXACT"",""kingdom"":""Animalia"",""phylum"":""Chordata"",""order"":""Anura"",""family"":""Eleutherodactylidae"",""genus"":""Eleutherodactylus"",""species"":""Eleutherodactylus coqui"",""kingdomKey"":1,""phylumKey"":44,""classKey"":131,""orderKey"":952,""familyKey"":3082,""genusKey"":2424035,""speciesKey"":2424091,""synonym"":false,""class"":""Amphibia""}"	Eleutherodactylus%20coqui	Eleutherodactylus coqui	Especie	Aceptado	Nombre original de la especie en la resolución 207 de 2010: Eleutherodactylus coqui	Rana Coqui	Terrestre	Invasora_MADS			
gbif.org/species/2427092	EXACT	Lithobates catesbeianus	Lithobates catesbeianus	Lithobates catesbeianus	Lithobates catesbeianus	Lithobates catesbeianus	(Shaw, 1802)	1	(Shaw, 1802)	SPECIES	ACCEPTED	Animalia	1	Animalia	Chordata	1	Chordata	Amphibia	1	Amphibia	Anura	1	Anura	Ranidae	1	Ranidae	Lithobates	1	Lithobates	catesbeianus	1	catesbeianus	"{""usageKey"":2427091,""scientificName"":""Lithobates catesbeianus (Shaw, 1802)"",""canonicalName"":""Lithobates catesbeianus"",""rank"":""SPECIES"",""status"":""ACCEPTED"",""confidence"":100,""matchType"":""EXACT"",""kingdom"":""Animalia"",""phylum"":""Chordata"",""order"":""Anura"",""family"":""Ranidae"",""genus"":""Lithobates"",""species"":""Lithobates catesbeianus"",""kingdomKey"":1,""phylumKey"":44,""classKey"":131,""orderKey"":952,""familyKey"":6746,""genusKey"":2427046,""speciesKey"":2427091,""synonym"":false,""class"":""Amphibia""}"	Lithobates%20catesbeianus	Lithobates catesbeianus	Especie	Aceptado	Nombre original de la especie en la resolución 207 de 2010: Rana catesbeiana	Rana Toro	Terrestre	Invasora_MADS	TRUE	TRUE	FALSE
gbif.org/species/8215487	EXACT	Salmo trutta	Salmo trutta	Salmo trutta	Salmo trutta	Salmo trutta	Linnaeus, 1758	1	Linnaeus, 1758	SPECIES	ACCEPTED	Animalia	1	Animalia	Chordata	1	Chordata	Actinopterygii	0		Salmoniformes	1	Salmoniformes	Salmonidae	1	Salmonidae	Salmo	1	Salmo	trutta	1	trutta	"{""usageKey"":8215487,""scientificName"":""Salmo trutta Linnaeus, 1758"",""canonicalName"":""Salmo trutta"",""rank"":""SPECIES"",""status"":""ACCEPTED"",""confidence"":100,""matchType"":""EXACT"",""kingdom"":""Animalia"",""phylum"":""Chordata"",""order"":""Salmoniformes"",""family"":""Salmonidae"",""genus"":""Salmo"",""species"":""Salmo trutta"",""kingdomKey"":1,""phylumKey"":44,""orderKey"":1313,""familyKey"":8615,""genusKey"":2347608,""speciesKey"":8215487,""synonym"":false}"	Salmo%20trutta	Salmo trutta	Especie	Aceptado	Nombre original de la especie en la resolución 207 de 2010: Salmo trutta	Trucha común o Trucha europea	Marino	Invasora_MADS	TRUE	FALSE	TRUE
gbif.org/species/5204019	EXACT	Oncorhynchus mykiss	Oncorhynchus mykiss	Oncorhynchus mykiss	Oncorhynchus mykiss	Oncorhynchus mykiss	(Walbaum, 1792)	1	(Walbaum, 1792)	SPECIES	ACCEPTED	Animalia	1	Animalia	Chordata	1	Chordata	Actinopterygii	0		Salmoniformes	1	Salmoniformes	Salmonidae	1	Salmonidae	Oncorhynchus	1	Oncorhynchus	mykiss	1	mykiss	"{""usageKey"":5204019,""scientificName"":""Oncorhynchus mykiss (Walbaum, 1792)"",""canonicalName"":""Oncorhynchus mykiss"",""rank"":""SPECIES"",""status"":""ACCEPTED"",""confidence"":100,""matchType"":""EXACT"",""kingdom"":""Animalia"",""phylum"":""Chordata"",""order"":""Salmoniformes"",""family"":""Salmonidae"",""genus"":""Oncorhynchus"",""species"":""Oncorhynchus mykiss"",""kingdomKey"":1,""phylumKey"":44,""orderKey"":1313,""familyKey"":8615,""genusKey"":2351426,""speciesKey"":5204019,""synonym"":false}"	Oncorhynchus%20mykiss	Oncorhynchus mykiss	Especie	Aceptado	Nombre original de la especie en la resolución 207 de 2010: Oncorhynchus mykiss	Trucha arco iris	Agua dulce	Invasora_MADS	TRUE	FALSE	TRUE
gbif.org/species/4285694	EXACT	Oreochromis niloticus	Oreochromis niloticus	Oreochromis niloticus	Oreochromis niloticus	Oreochromis niloticus	(Linnaeus, 1758)	1	(Linnaeus, 1758)	SPECIES	ACCEPTED	Animalia	1	Animalia	Chordata	1	Chordata	Actinopterygii	0		Perciformes	1	Perciformes	Cichlidae	1	Cichlidae	Oreochromis	1	Oreochromis	niloticus	1	niloticus	"{""usageKey"":4285694,""scientificName"":""Oreochromis niloticus (Linnaeus, 1758)"",""canonicalName"":""Oreochromis niloticus"",""rank"":""SPECIES"",""status"":""ACCEPTED"",""confidence"":100,""matchType"":""EXACT"",""kingdom"":""Animalia"",""phylum"":""Chordata"",""order"":""Perciformes"",""family"":""Cichlidae"",""genus"":""Oreochromis"",""species"":""Oreochromis niloticus"",""kingdomKey"":1,""phylumKey"":44,""orderKey"":587,""familyKey"":8522,""genusKey"":2372271,""speciesKey"":4285694,""synonym"":false}"	Oreochromis%20niloticus	Oreochromis niloticus	Especie	Aceptado	Nombre original de la especie en la resolución 207 de 2010: Oreochromis niloticus	Tilapia nilótica	Agua dulce	Invasora_MADS	TRUE	FALSE	FALSE
gbif.org/species/4286975	EXACT	Cyprinus carpio	Cyprinus carpio	Cyprinus carpio	Cyprinus carpio	Cyprinus carpio	Linnaeus, 1758	1	Linnaeus, 1758	SPECIES	ACCEPTED	Animalia	1	Animalia	Chordata	1	Chordata	Actinopterygii	0		Cypriniformes	1	Cypriniformes	Cyprinidae	1	Cyprinidae	Cyprinus	1	Cyprinus	carpio	1	carpio	"{""usageKey"":4286975,""scientificName"":""Cyprinus carpio Linnaeus, 1758"",""canonicalName"":""Cyprinus carpio"",""rank"":""SPECIES"",""status"":""ACCEPTED"",""confidence"":100,""matchType"":""EXACT"",""kingdom"":""Animalia"",""phylum"":""Chordata"",""order"":""Cypriniformes"",""family"":""Cyprinidae"",""genus"":""Cyprinus"",""species"":""Cyprinus carpio"",""kingdomKey"":1,""phylumKey"":44,""orderKey"":1153,""familyKey"":7336,""genusKey"":2347697,""speciesKey"":4286975,""synonym"":false}"	Cyprinus%20carpio	Cyprinus carpio	Especie	Aceptado	Nombre original de la especie en la resolución 207 de 2010: Cyprinus carpio	Carpa	Agua dulce	Invasora_MADS	TRUE	FALSE	FALSE
gbif.org/species/2394563	EXACT	Micropterus salmoides	Micropterus salmoides	Micropterus salmoides	Micropterus salmoides	Micropterus salmoides	(Lacepède, 1802)	1	(Lacepède, 1802)	SPECIES	ACCEPTED	Animalia	1	Animalia	Chordata	1	Chordata	Actinopterygii	0		Perciformes	1	Perciformes	Centrarchidae	1	Centrarchidae	Micropterus	1	Micropterus	salmoides	1	salmoides	"{""usageKey"":2394563,""scientificName"":""Micropterus salmoides (Lacepède, 1802)"",""canonicalName"":""Micropterus salmoides"",""rank"":""SPECIES"",""status"":""ACCEPTED"",""confidence"":100,""matchType"":""EXACT"",""kingdom"":""Animalia"",""phylum"":""Chordata"",""order"":""Perciformes"",""family"":""Centrarchidae"",""genus"":""Micropterus"",""species"":""Micropterus salmoides"",""kingdomKey"":1,""phylumKey"":44,""orderKey"":587,""familyKey"":8513,""genusKey"":2391100,""speciesKey"":2394563,""synonym"":false}"	Micropterus%20salmoides	Micropterus salmoides	Especie	Aceptado	Nombre original de la especie en la resolución 207 de 2010: Micropterus salmoides	Perca americana	Agua dulce	Invasora_MADS	TRUE	FALSE	FALSE
gbif.org/species/2372396	EXACT	Oreochromis mossambicus	Oreochromis mossambicus	Oreochromis mossambicus	Oreochromis mossambicus	Oreochromis mossambicus	(Peters, 1852)	1	(Peters, 1852)	SPECIES	ACCEPTED	Animalia	1	Animalia	Chordata	1	Chordata	Actinopterygii	0		Perciformes	1	Perciformes	Cichlidae	1	Cichlidae	Oreochromis	1	Oreochromis	mossambicus	1	mossambicus	"{""usageKey"":2372396,""scientificName"":""Oreochromis mossambicus (Peters, 1852)"",""canonicalName"":""Oreochromis mossambicus"",""rank"":""SPECIES"",""status"":""ACCEPTED"",""confidence"":100,""matchType"":""EXACT"",""kingdom"":""Animalia"",""phylum"":""Chordata"",""order"":""Perciformes"",""family"":""Cichlidae"",""genus"":""Oreochromis"",""species"":""Oreochromis mossambicus"",""kingdomKey"":1,""phylumKey"":44,""orderKey"":587,""familyKey"":8522,""genusKey"":2372271,""speciesKey"":2372396,""synonym"":false}"	Oreochromis%20mossambicus	Oreochromis mossambicus	Especie	Aceptado	Nombre original de la especie en la resolución 207 de 2010: Oreochromis mossambicus	Tilapia negra	Agua dulce	Invasora_MADS	TRUE	FALSE	FALSE
gbif.org/species/5211176	EXACT	Trichopodus pectoralis	Trichopodus pectoralis	Trichopodus pectoralis	Trichopodus pectoralis	Trichopodus pectoralis	Regan, 1910	1	Regan, 1910	SPECIES	ACCEPTED	Animalia	1	Animalia	Chordata	1	Chordata	Actinopterygii	0		Perciformes	1	Perciformes	Osphronemidae	1	Osphronemidae	Trichopodus	1	Trichopodus	pectoralis	1	pectoralis	"{""usageKey"":5211177,""scientificName"":""Trichopodus pectoralis Regan, 1910"",""canonicalName"":""Trichopodus pectoralis"",""rank"":""SPECIES"",""status"":""ACCEPTED"",""confidence"":100,""matchType"":""EXACT"",""kingdom"":""Animalia"",""phylum"":""Chordata"",""order"":""Perciformes"",""family"":""Osphronemidae"",""genus"":""Trichopodus"",""species"":""Trichopodus pectoralis"",""kingdomKey"":1,""phylumKey"":44,""orderKey"":587,""familyKey"":8553,""genusKey"":2394147,""speciesKey"":5211177,""synonym"":false}"	Trichopodus%20pectoralis	Trichopodus pectoralis	Especie	Aceptado	Nombre original de la especie en la resolución 207 de 2010: Trichogaster pectoralis	Gourami piel de culebra	Agua dulce	Invasora_MADS			
gbif.org/species/2334438	EXACT	Pterois volitans	Pterois volitans	Pterois volitans	Pterois volitans	Pterois volitans	(Linnaeus, 1758)	1	(Linnaeus, 1758)	SPECIES	ACCEPTED	Animalia	1	Animalia	Chordata	1	Chordata	Actinopterygii	0		Scorpaeniformes	1	Scorpaeniformes	Scorpaenidae	1	Scorpaenidae	Pterois	1	Pterois	volitans	1	volitans	"{""usageKey"":2334438,""scientificName"":""Pterois volitans (Linnaeus, 1758)"",""canonicalName"":""Pterois volitans"",""rank"":""SPECIES"",""status"":""ACCEPTED"",""confidence"":100,""matchType"":""EXACT"",""kingdom"":""Animalia"",""phylum"":""Chordata"",""order"":""Scorpaeniformes"",""family"":""Scorpaenidae"",""genus"":""Pterois"",""species"":""Pterois volitans"",""kingdomKey"":1,""phylumKey"":44,""orderKey"":590,""familyKey"":4508,""genusKey"":2334432,""speciesKey"":2334438,""synonym"":false}"	Pterois%20volitans	Pterois volitans	Especie	Aceptado	Nombre original de la especie en la resolución 207 de 2010: Pterois Volitans	Pez León	Marino	Invasora_MADS	FALSE	FALSE	TRUE
gbif.org/species/2765940	EXACT	Eichhornia crassipes	Eichhornia crassipes	Eichhornia crassipes	Pontederia crassipes	Eichhornia crassipes	(Mart.) Solms	1	(Mart.) Solms	SPECIES	SYNONYM	Plantae	1	Plantae	Tracheophyta	1	Tracheophyta	Liliopsida	1	Liliopsida	Commelinales	1	Commelinales	Pontederiaceae	1	Pontederiaceae	Eichhornia	1	Eichhornia	crassipes	1	crassipes	"{""usageKey"":2765940,""acceptedUsageKey"":2765942,""scientificName"":""Eichhornia crassipes (Mart.) Solms"",""canonicalName"":""Eichhornia crassipes"",""rank"":""SPECIES"",""status"":""SYNONYM"",""confidence"":100,""matchType"":""EXACT"",""kingdom"":""Plantae"",""phylum"":""Tracheophyta"",""order"":""Commelinales"",""family"":""Pontederiaceae"",""genus"":""Pontederia"",""species"":""Pontederia crassipes"",""kingdomKey"":6,""phylumKey"":7707728,""classKey"":196,""orderKey"":553,""familyKey"":3731,""genusKey"":2740415,""speciesKey"":2765942,""synonym"":true,""class"":""Liliopsida""}"	Eichhornia%20crassipes	Eichhornia crassipes	Especie	Aceptado	Nombre original de la especie en la resolución 207 de 2010: Eichornia crassipes	Buchón	Agua dulce	Invasora_MADS	TRUE	FALSE	FALSE
gbif.org/species/2668059	EXACT	Kappaphycus alvarezii	Kappaphycus alvarezii	Kappaphycus alvarezii	Kappaphycus alvarezii	Kappaphycus alvarezii	(Doty) Doty ex P.C.Silva	1	(Doty) Doty ex P.C.Silva	SPECIES	ACCEPTED	Plantae	1	Plantae	Rhodophyta	1	Rhodophyta	Florideophyceae	1	Florideophyceae	Gigartinales	1	Gigartinales	Solieriaceae	1	Solieriaceae	Kappaphycus	1	Kappaphycus	alvarezii	1	alvarezii	"{""usageKey"":2668059,""scientificName"":""Kappaphycus alvarezii (Doty) Doty ex P.C.Silva"",""canonicalName"":""Kappaphycus alvarezii"",""rank"":""SPECIES"",""status"":""ACCEPTED"",""confidence"":100,""matchType"":""EXACT"",""kingdom"":""Plantae"",""phylum"":""Rhodophyta"",""order"":""Gigartinales"",""family"":""Solieriaceae"",""genus"":""Kappaphycus"",""species"":""Kappaphycus alvarezii"",""kingdomKey"":6,""phylumKey"":106,""classKey"":342,""orderKey"":1400,""familyKey"":3234991,""genusKey"":2668048,""speciesKey"":2668059,""synonym"":false,""class"":""Florideophyceae""}"	Kappaphycus%20alvarezii	Kappaphycus alvarezii	Especie	Aceptado	Nombre original de la especie en la resolución 207 de 2010: Kappaphycus alvarezeii	Alga marina	Marino	Invasora_MADS			TRUE
gbif.org/species/2951984	EXACT	Ulex europaeus	Ulex europaeus	Ulex europaeus	Ulex europaeus	Ulex europaeus	L.	1	L.	SPECIES	ACCEPTED	Plantae	1	Plantae	Tracheophyta	1	Tracheophyta	Magnoliopsida	1	Magnoliopsida	Fabales	1	Fabales	Fabaceae	1	Fabaceae	Ulex	1	Ulex	europaeus	1	europaeus	"{""usageKey"":2951984,""scientificName"":""Ulex europaeus L."",""canonicalName"":""Ulex europaeus"",""rank"":""SPECIES"",""status"":""ACCEPTED"",""confidence"":100,""matchType"":""EXACT"",""kingdom"":""Plantae"",""phylum"":""Tracheophyta"",""order"":""Fabales"",""family"":""Fabaceae"",""genus"":""Ulex"",""species"":""Ulex europaeus"",""kingdomKey"":6,""phylumKey"":7707728,""classKey"":220,""orderKey"":1370,""familyKey"":5386,""genusKey"":2951953,""speciesKey"":2951984,""synonym"":false,""class"":""Magnoliopsida""}"	Ulex%20europaeus	Ulex europaeus	Especie	Aceptado	Nombre original de la especie en la resolución 207 de 2010: Ulex europaeus	Retamo Espinoso	Terrestre	Invasora_MADS			
gbif.org/species/2940296	EXACT	Genista monspessulana	Genista monspessulana	Genista monspessulana	Genista monspessulana	Genista monspessulana	(L.) L.A.S.Johnson	1	(L.) L.A.S.Johnson	SPECIES	ACCEPTED	Plantae	1	Plantae	Tracheophyta	1	Tracheophyta	Magnoliopsida	1	Magnoliopsida	Fabales	1	Fabales	Fabaceae	1	Fabaceae	Genista	1	Genista	monspessulana	1	monspessulana	"{""usageKey"":5347796,""scientificName"":""Genista monspessulana (L.) L.A.S.Johnson"",""canonicalName"":""Genista monspessulana"",""rank"":""SPECIES"",""status"":""ACCEPTED"",""confidence"":100,""matchType"":""EXACT"",""kingdom"":""Plantae"",""phylum"":""Tracheophyta"",""order"":""Fabales"",""family"":""Fabaceae"",""genus"":""Genista"",""species"":""Genista monspessulana"",""kingdomKey"":6,""phylumKey"":7707728,""classKey"":220,""orderKey"":1370,""familyKey"":5386,""genusKey"":2940025,""speciesKey"":5347796,""synonym"":false,""class"":""Magnoliopsida""}"	Genista%20monspessulana	Genista monspessulana	Especie	Aceptado	Nombre original de la especie en la resolución 207 de 2010: Teline monspessulana	Retamo Liso	Terrestre	Invasora_MADS			
gbif.org/species/2702503	EXACT	Melinis minutiflora	Melinis minutiflora	Melinis minutiflora	Melinis minutiflora	Melinis minutiflora	P.Beauv.	1	P.Beauv.	SPECIES	ACCEPTED	Plantae	1	Plantae	Tracheophyta	1	Tracheophyta	Liliopsida	1	Liliopsida	Poales	1	Poales	Poaceae	1	Poaceae	Melinis	1	Melinis	minutiflora	1	minutiflora	"{""usageKey"":2702503,""scientificName"":""Melinis minutiflora P.Beauv."",""canonicalName"":""Melinis minutiflora"",""rank"":""SPECIES"",""status"":""ACCEPTED"",""confidence"":100,""matchType"":""EXACT"",""kingdom"":""Plantae"",""phylum"":""Tracheophyta"",""order"":""Poales"",""family"":""Poaceae"",""genus"":""Melinis"",""species"":""Melinis minutiflora"",""kingdomKey"":6,""phylumKey"":7707728,""classKey"":196,""orderKey"":1369,""familyKey"":3073,""genusKey"":2702502,""speciesKey"":2702503,""synonym"":false,""class"":""Liliopsida""}"	Melinis%20minutiflora	Melinis minutiflora	Especie	Aceptado	Nombre original de la especie en la resolución 207 de 2010: Melinis minutiflora	Canutillo, Yaragua	Terrestre	Invasora_MADS			
gbif.org/species/2498252	EXACT	Alopochen aegyptiaca	Alopochen aegyptiaca	Alopochen aegyptiaca	Alopochen aegyptiaca		(Linnaeus, 1766)					Animalia			Chordata			Aves			Anseriformes			Anatidae			Alopochen			aegyptiaca						Especie	Aceptado	Agregada como especie invasora en la resolución 0067 del 24 Ene 2023	Ganso del Nilo		Invasora_MADS			
gbif.org/species/3170823	EXACT	Paulownia tomentosa	Paulownia tomentosa	Paulownia tomentosa			(Thunb.) Steud.					Plantae			Tracheophyta			Magnoliopsida			Lamiales			Paulowniaceae			Paulownia			tomentosa						Especie	Aceptado	Agregada como especie invasora en la resolución 0067 del 24 Ene 2023	Árbol del Kiri		Invasora_MADS			
gbif.org/species/2227300	EXACT	Procambarus clarkii	Procambarus clarkii	Procambarus clarkii			(Girard, 1852)					Animalia			Arthropoda			Malacostraca			Decapoda			Cambaridae			Procambarus			clarkii						Especie	Aceptado	Agregada como especie invasora en la resolución 0067 del 24 Ene 2023	Cangrejo Rojo Americano		Invasora_MADS			
gbif.org/species/2441247	EXACT	Hippopotamus amphibius	Hippopotamus amphibius	Hippopotamus amphibius	Hippopotamus amphibius		Linnaeus, 1758					Animalia			Chordata			Mammalia			Artiodactyla			Hippopotamidae			Hippopotamus			amphibius						Especie	Aceptado	Agregada como especie invasora en la resolución 0346 del 24 Mar 2022	Hipopótamo común		Invasora_MADS			
