grupoTax	category	especies	thematic	taxonRank
Fungi	LC_IUCN	4	threatStatus_UICN	kingdom
Ascomycota	LC_IUCN	1	threatStatus_UICN	phylum
Basidiomycota	LC_IUCN	3	threatStatus_UICN	phylum
Agaricomycetes	LC_IUCN	3	threatStatus_UICN	class
Lecanoromycetes	LC_IUCN	1	threatStatus_UICN	class
Agaricales	LC_IUCN	2	threatStatus_UICN	order
Boletales	LC_IUCN	1	threatStatus_UICN	order
Teloschistales	LC_IUCN	1	threatStatus_UICN	order
Agaricaceae	LC_IUCN	2	threatStatus_UICN	family
Physciaceae	LC_IUCN	1	threatStatus_UICN	family
Suillaceae	LC_IUCN	1	threatStatus_UICN	family
Coprinus	LC_IUCN	1	threatStatus_UICN	genus
Lycoperdon	LC_IUCN	1	threatStatus_UICN	genus
Phaeophyscia	LC_IUCN	1	threatStatus_UICN	genus
Suillus	LC_IUCN	1	threatStatus_UICN	genus
Coprinus comatus	LC_IUCN	1	threatStatus_UICN	species
Lycoperdon perlatum	LC_IUCN	1	threatStatus_UICN	species
Phaeophyscia hispidula	LC_IUCN	1	threatStatus_UICN	species
Suillus luteus	LC_IUCN	1	threatStatus_UICN	species
Chromista	Exótica	6	exotic	kingdom
Viruses	Exótica	1	exotic	kingdom
Ochrophyta	Exótica	6	exotic	phylum
Bacillariophyceae	Exótica	5	exotic	class
Phaeophyceae	Exótica	1	exotic	class
Chaetocerotales	Exótica	1	exotic	order
Coscinodiscales	Exótica	1	exotic	order
Fragilariales	Exótica	1	exotic	order
Fucales	Exótica	1	exotic	order
Lithodesmiales	Exótica	1	exotic	order
Triceratiales	Exótica	1	exotic	order
Chaetocerotaceae	Exótica	1	exotic	family
Flaviviridae	Exótica	1	exotic	family
Fragilariaceae	Exótica	1	exotic	family
Hemidiscaceae	Exótica	1	exotic	family
Lithodesmiaceae	Exótica	1	exotic	family
Sargassaceae	Exótica	1	exotic	family
Triceratiaceae	Exótica	1	exotic	family
Asterionellopsis	Exótica	1	exotic	genus
Chaetoceros	Exótica	1	exotic	genus
Ditylum	Exótica	1	exotic	genus
Flavivirus	Exótica	1	exotic	genus
Hemidiscus	Exótica	1	exotic	genus
Odontella	Exótica	1	exotic	genus
Turbinaria	Exótica	1	exotic	genus
Asterionellopsis glacialis	Exótica	1	exotic	species
Chaetoceros messanensis	Exótica	1	exotic	species
Ditylum brightwellii	Exótica	1	exotic	species
Hemidiscus cuneiformis	Exótica	1	exotic	species
Odontella aurita	Exótica	1	exotic	species
Turbinaria turbinata	Exótica	1	exotic	species
West Nile virus	Exótica	1	exotic	species
Chromista	Invasora GRIIS	1	isInvasive_griis	kingdom
Ochrophyta	Invasora GRIIS	1	isInvasive_griis	phylum
Phaeophyceae	Invasora GRIIS	1	isInvasive_griis	class
Fucales	Invasora GRIIS	1	isInvasive_griis	order
Sargassaceae	Invasora GRIIS	1	isInvasive_griis	family
Turbinaria	Invasora GRIIS	1	isInvasive_griis	genus
Turbinaria turbinata	Invasora GRIIS	1	isInvasive_griis	species
Fungi	Endémica	82	endemic	kingdom
Ascomycota	Endémica	79	endemic	phylum
Basidiomycota	Endémica	3	endemic	phylum
Agaricomycetes	Endémica	3	endemic	class
Arthoniomycetes	Endémica	21	endemic	class
Dothideomycetes	Endémica	5	endemic	class
Eurotiomycetes	Endémica	2	endemic	class
Lecanoromycetes	Endémica	51	endemic	class
Agaricales	Endémica	2	endemic	order
Arthoniales	Endémica	21	endemic	order
Atheliales	Endémica	1	endemic	order
Lecanorales	Endémica	23	endemic	order
Ostropales	Endémica	14	endemic	order
Peltigerales	Endémica	7	endemic	order
Pertusariales	Endémica	6	endemic	order
Pyrenulales	Endémica	1	endemic	order
Teloschistales	Endémica	1	endemic	order
Trypetheliales	Endémica	5	endemic	order
Verrucariales	Endémica	1	endemic	order
Arthoniaceae	Endémica	11	endemic	family
Atheliaceae	Endémica	1	endemic	family
Cladoniaceae	Endémica	1	endemic	family
Collemataceae	Endémica	1	endemic	family
Gomphillaceae	Endémica	1	endemic	family
Graphidaceae	Endémica	11	endemic	family
Hygrophoraceae	Endémica	2	endemic	family
Lecanoraceae	Endémica	4	endemic	family
Lecideaceae	Endémica	6	endemic	family
Lobariaceae	Endémica	6	endemic	family
Melaspileaceae	Endémica	1	endemic	family
Parmeliaceae	Endémica	4	endemic	family
Pertusariaceae	Endémica	6	endemic	family
Physciaceae	Endémica	1	endemic	family
Pilocarpaceae	Endémica	2	endemic	family
Pyrenulaceae	Endémica	1	endemic	family
Ramalinaceae	Endémica	5	endemic	family
Roccellaceae	Endémica	8	endemic	family
Stictidaceae	Endémica	1	endemic	family
Thelotremataceae	Endémica	1	endemic	family
Trypetheliaceae	Endémica	5	endemic	family
Verrucariaceae	Endémica	1	endemic	family
Allophoron	Endémica	1	endemic	genus
Anomomorpha	Endémica	1	endemic	genus
Arthonia	Endémica	11	endemic	genus
Astrothelium	Endémica	2	endemic	genus
Bacidia	Endémica	1	endemic	genus
Bapalmuia	Endémica	1	endemic	genus
Buellia	Endémica	1	endemic	genus
Cladonia	Endémica	1	endemic	genus
Cora	Endémica	1	endemic	genus
Fellhanera	Endémica	1	endemic	genus
Graphis	Endémica	3	endemic	genus
Gyalideopsis	Endémica	1	endemic	genus
Hypotrachyna	Endémica	2	endemic	genus
Lecanactis	Endémica	1	endemic	genus
Lecanora	Endémica	4	endemic	genus
Lecidea	Endémica	6	endemic	genus
Leptogium	Endémica	1	endemic	genus
Lichenomphalia	Endémica	2	endemic	genus
Lithothelium	Endémica	1	endemic	genus
Melaspilea	Endémica	1	endemic	genus
Mycomicrothelia	Endémica	1	endemic	genus
Myriotrema	Endémica	1	endemic	genus
Ocellularia	Endémica	1	endemic	genus
Opegrapha	Endémica	4	endemic	genus
Parmotrema	Endémica	1	endemic	genus
Pertusaria	Endémica	6	endemic	genus
Petractis	Endémica	1	endemic	genus
Phaeographis	Endémica	2	endemic	genus
Platygrapha	Endémica	1	endemic	genus
Ramalina	Endémica	4	endemic	genus
Relicina	Endémica	1	endemic	genus
Sarcographa	Endémica	1	endemic	genus
Sticta	Endémica	5	endemic	genus
Stictina	Endémica	1	endemic	genus
Stigmatidium	Endémica	1	endemic	genus
Syncesia	Endémica	2	endemic	genus
Thalloloma	Endémica	1	endemic	genus
Thelotrema	Endémica	1	endemic	genus
Trypethelium	Endémica	2	endemic	genus
Tylophorella	Endémica	1	endemic	genus
Verrucaria	Endémica	1	endemic	genus
Allophoron farinosum	Endémica	1	endemic	species
Anomomorpha aggregans	Endémica	1	endemic	species
Arthonia ambiguella	Endémica	1	endemic	species
Arthonia excedens	Endémica	1	endemic	species
Arthonia fuscoalbella	Endémica	1	endemic	species
Arthonia leucocheila	Endémica	1	endemic	species
Arthonia miserula	Endémica	1	endemic	species
Arthonia obscurella	Endémica	1	endemic	species
Arthonia polygramma	Endémica	1	endemic	species
Arthonia pruinosula	Endémica	1	endemic	species
Arthonia pulicosa	Endémica	1	endemic	species
Arthonia septemlocularis	Endémica	1	endemic	species
Arthonia xanthocarpa	Endémica	1	endemic	species
Astrothelium leucothelium	Endémica	1	endemic	species
Astrothelium scorioides	Endémica	1	endemic	species
Bacidia hostheleoides	Endémica	1	endemic	species
Bapalmuia araracuarensis	Endémica	1	endemic	species
Buellia subjuncta	Endémica	1	endemic	species
Cladonia symphoriza	Endémica	1	endemic	species
Cora hirsuta	Endémica	1	endemic	species
Fellhanera pauciseptata	Endémica	1	endemic	species
Graphis agminalis	Endémica	1	endemic	species
Graphis dolichographa	Endémica	1	endemic	species
Graphis mesographa	Endémica	1	endemic	species
Gyalideopsis chicaque	Endémica	1	endemic	species
Hypotrachyna neoscytodes	Endémica	1	endemic	species
Hypotrachyna paraphyscioides	Endémica	1	endemic	species
Lecanactis proximans	Endémica	1	endemic	species
Lecanora mesoxantha	Endémica	1	endemic	species
Lecanora pallidior	Endémica	1	endemic	species
Lecanora russeola	Endémica	1	endemic	species
Lecanora subferruginea	Endémica	1	endemic	species
Lecidea albomaculans	Endémica	1	endemic	species
Lecidea demutans	Endémica	1	endemic	species
Lecidea fulgidula	Endémica	1	endemic	species
Lecidea iodea	Endémica	1	endemic	species
Lecidea ischnospora	Endémica	1	endemic	species
Lecidea melacheila	Endémica	1	endemic	species
Leptogium inversum	Endémica	1	endemic	species
Lichenomphalia aurantiaca	Endémica	1	endemic	species
Lichenomphalia lobata	Endémica	1	endemic	species
Lithothelium polysemum	Endémica	1	endemic	species
Melaspilea interalbicans	Endémica	1	endemic	species
Mycomicrothelia apposita	Endémica	1	endemic	species
Myriotrema sphinctrinellum	Endémica	1	endemic	species
Ocellularia gymnocarpa	Endémica	1	endemic	species
Opegrapha chionographa	Endémica	1	endemic	species
Opegrapha leucophila	Endémica	1	endemic	species
Opegrapha microsema	Endémica	1	endemic	species
Opegrapha onchospora	Endémica	1	endemic	species
Parmotrema fractum	Endémica	1	endemic	species
Pertusaria acroscyphoides	Endémica	1	endemic	species
Pertusaria assimilans	Endémica	1	endemic	species
Pertusaria confundens	Endémica	1	endemic	species
Pertusaria pycnophora	Endémica	1	endemic	species
Pertusaria rhodostoma	Endémica	1	endemic	species
Pertusaria tuberculifera	Endémica	1	endemic	species
Petractis hypoleuca	Endémica	1	endemic	species
Phaeographis lindigiana	Endémica	1	endemic	species
Phaeographis paratypa	Endémica	1	endemic	species
Platygrapha leucopsara	Endémica	1	endemic	species
Ramalina bogotensis	Endémica	1	endemic	species
Ramalina erythrantha	Endémica	1	endemic	species
Ramalina interponens	Endémica	1	endemic	species
Ramalina protensa	Endémica	1	endemic	species
Relicina colombiana	Endémica	1	endemic	species
Sarcographa medusulina	Endémica	1	endemic	species
Sticta cordillerana	Endémica	1	endemic	species
Sticta granatensis	Endémica	1	endemic	species
Sticta lenormandii	Endémica	1	endemic	species
Sticta neolinita	Endémica	1	endemic	species
Sticta neopulmonaria	Endémica	1	endemic	species
Stictina andreana	Endémica	1	endemic	species
Stigmatidium leptostictum	Endémica	1	endemic	species
Syncesia decussans	Endémica	1	endemic	species
Syncesia flavescens	Endémica	1	endemic	species
Thalloloma haemographum	Endémica	1	endemic	species
Thelotrema leucocarpoides	Endémica	1	endemic	species
Trypethelium columbianum	Endémica	1	endemic	species
Trypethelium phaeothelium	Endémica	1	endemic	species
Tylophorella pyrenocarpoides	Endémica	1	endemic	species
Verrucaria intrusa	Endémica	1	endemic	species
