grupoBio	registros	registros_continentales	registros_marinos	registros_salobres	especies	especies_continentales	especies_marinas	especies_salobres	especies_amenazadas	especies_cr_mads	especies_en_mads	especies_vu_mads	registros_amenazadas	registros_cr_mads	registros_en_mads	registros_vu_mads	especies_cites	especies_cites_i	especies_cites_ii	especies_cites_iii	registros_cites	registros_cites_i	registros_cites_ii	registros_cites_iii	especies_endemicas	especies_exoticas	especies_migratorias	registros_endemicas	registros_exoticas	registros_migratorias	especies_invasoras	registros_invasoras	especies_invasoras_griis	registros_invasoras_griis	especies_iucn	especies_ew_iucn	especies_cr_iucn	especies_en_iucn	especies_vu_iucn	especies_nt_iucn	especies_lc_iucn	especies_dd_iucn	especies_lr_lc_iucn	especies_lr_nt_iucn	registros_iucn	registros_ew_iucn	registros_cr_iucn	registros_en_iucn	registros_vu_iucn	registros_nt_iucn	registros_lc_iucn	registros_dd_iucn	registros_lr_lc_iucn	registros_lr_nt_iucn	especie_continentales_amenazadas	especies_Continentales_cr_mads	especiescontinentales_en_mads	especies_continentales_vu_mads	registros_continentales_amenaza	registros_continentales_cr_mads	registros_continentales_en_mads	registros_continentales_vu_mads	especies_continentales_cites	especies_continentales_cites_i	especies_continentales_cites_ii	especies_continentales_cites_iii	registros_continentales_cites	registros_continentales_cites_i	registros_continentales_cites_ii	registros_continentales_cites_iii	especies_continentales_endemicas	especies_continentales_exoticas	especies_continentales_migratorias	registros_continentales_endemicas	registros_continentales_exoticas	registros_continentales_migratorias	especies_continentales_invasora	registros_continentales_invasora	especies_continentales_invasora_griis	registros_continentales_invasora_griis	especies_continentales_iucn	especies_continentales_ew_iucn	especies_continentales_cr_iucn	especies_continentales_en_iucn	especies_continentales_vu_iucn	especies_continentales_nt_iucn	especies_continentales_lc_iucn	especies_continentales_dd_iucn	especies_continentales_lr_lc_iucn	especies_continentales_lr_nt_iucn	registros_continentales_iucn	registros_continentales_ew_iucn	registros_continentales_cr_iucn	registros_continentales_en_iucn	registros_continentales_vu_iucn	registros_continentales_nt_iucn	registros_continentales_lc_iucn	registros_continentales_dd_iucn	registros_continentales_lr_lc_iucn	registros_continentales_lr_nt_iucn	especies_marinas_amenazadas	especies_marinas_en_mads	especies_marinas_cr_mads	especies_marinas_vu_mads	registros_marinas_amenaza	registros_marinas_cr_mads	registros_marinas_en_mads	registros_marinas_vu_mads	especies_marinas_cites	especies_marinas_cites_i	especies_marinas_cites_ii	especies_marinas_cites_iii	registros_marinas_cites	registros_marinas_cites_i	registros_marinas_cites_ii	registros_marinas_cites_iii	especies_marinas_endemicas	especies_marinas_exoticas	especies_marinas_migratorias	registros_marinas_endemicas	registros_marinas_exoticas	registros_marinas_migratorias	especies_marinas_invasora	registros_marinas_invasora	especies_marinas_invasora_griis	registros_marinas_invasora_griis	especies_marinas_iucn	especies_marinas_ew_iucn	especies_marinas_cr_iucn	especies_marinas_en_iucn	especies_marinas_vu_iucn	especies_marinas_nt_iucn	especies_marinas_lc_iucn	especies_marinas_dd_iucn	especies_marinas_lr_c_iucn	especies_marinas_lr_nt_iucn	registros_marinas_iucn	registros_marinas_ew_iucn	registros_marinas_cr_iucn	registros_marinas_en_iucn	registros_marinas_vu_iucn	registros_marinas_nt_iucn	registros_marinas_lc_iuc	registros_marinas_dd_iucn	registros_marinas_lr_lc_iucn	registros_marinas_lr_nt_iucn	especies_salobres_amenazadas	especies_salobres_en_mads
Abejas	61	61	0	0	9	9	0	0	0	0	0	0	0	0	0	0	0	0	0	0	0	0	0	0	0	0	0	0	0	0	0	0	0	0	4	0	0	0	0	0	1	3	0	0	29	0	0	0	0	0	1	28	0	0	0	0	0	0	0	0	0	0	0	0	0	0	0	0	0	0	0	0	0	0	0	0	0	0	0	0	4	0	0	0	0	0	1	3	0	0	29	0	0	0	0	0	1	28	0	0	0	0	0	0	0	0	0	0	0	0	0	0	0	0	0	0	0	0	0	0	0	0	0	0	0	0	0	0	0	0	0	0	0	0	0	0	0	0	0	0	0	0	0	0	0	0	0	0
Algas	1742	206	163	147	11	9	0	0	0				0				0				0				0	0		0	0						0										0										0				0				0				0				0	0		0	0						0										0										0				0				0				0				0	0		0	0						0										0										0	
Anfibios	6424	6424	0	45	119	119	0	1	4	1	3	0	276	261	15	0	5	0	5	0	1571	0	1571	0	0	0	0	0	0	0	0	0	0	0	103	0	7	12	15	12	53	4	0	0	5297	0	1715	141	452	198	2087	704	0	0	4	1	3	0	276	261	15	0	5	0	5	0	1571	0	1571	0	0	0	0	0	0	0	0	0	0	0	103	0	7	12	15	12	53	4	0	0	5297	0	1715	141	452	198	2087	704	0	0	0	0	0	0	0	0	0	0	0	0	0	0	0	0	0	0	0	0	0	0	0	0	0	0	0	0	0	0	0	0	0	0	0	0	0	0	0	0	0	0	0	0	0	0	0	0	0	0
Animales	163416	143685	12076	3503	2750	2322	558	115	76	5	29	42	3282	351	1017	1914	218	12	198	8	20630	149	19524	957	38	10	106	279	962	12391	1	3	7	946	1586	0	11	25	62	71	1375	40	0	2	137440	0	1731	240	1914	3060	129633	858	0	4	69	5	28	36	2970	351	957	1662	210	12	190	8	19954	121	18876	957	38	10	97	273	800	9803	1	2	7	785	1398	0	7	24	57	69	1210	29	0	2	125425	0	1715	237	1875	2973	117806	815	0	4	11	2	0	9	300	0	50	250	6	2	4	0	42	12	30	0	0	0	30	0	0	1427	0	0	0	0	236	0	4	1	5	6	209	11	0	0	4904	0	16	2	22	68	4753	43	0	0	3	0
Arácnidos	612	604	147	121	74	70	0	0	0				0				0				0				0	0		0	0						0										0										0				0				0				0				0	0		0	0						0										0										0				0				0				0				0	0		0	0						0										0										0	
Aves	139496	128144	3890	585	1162	1135	62	13	46	4	20	22	2576	90	978	1508	183	3	174	6	18913	82	17884	947	9	3	106	112	928	12391	0	0	3	928	1027	0	0	6	28	43	948	2	0	0	128508	0	0	71	1351	2805	124255	26	0	0	44	4	19	21	2511	90	920	1501	180	3	171	6	18287	66	17274	947	9	3	97	112	768	9803	0	0	3	768	1006	0	0	6	27	43	928	2	0	0	118197	0	0	71	1334	2733	114033	26	0	0	2	1	0	1	53	0	48	5	1	0	1	0	2	0	2	0	0	0	30	0	0	1427	0	0	0	0	50	0	0	0	0	4	46	0	0	0	3228	0	0	0	0	55	3173	0	0	0	0	0
Cactus	787	787	0	0	6	6	0	0	0	0	0	0	0	0	0	0	2	0	2	0	2	0	2	0	2	0	0	2	0	0	0	0	0	0	3	0	0	1	0	0	1	1	0	0	3	0	0	1	0	0	1	1	0	0	0	0	0	0	0	0	0	0	2	0	2	0	2	0	2	0	2	0	0	2	0	0	0	0	0	0	3	0	0	1	0	0	1	1	0	0	3	0	0	1	0	0	1	1	0	0	0	0	0	0	0	0	0	0	0	0	0	0	0	0	0	0	0	0	0	0	0	0	0	0	0	0	0	0	0	0	0	0	0	0	0	0	0	0	0	0	0	0	0	0	0	0	0	0
Corales	47	5	36	0	4	0	3	0	0	0	0	0	0	0	0	0	3	0	3	0	30	0	30	0	0	0	0	0	0	0	0	0	0	0	2	0	0	0	0	1	1	0	0	0	24	0	0	0	0	12	12	0	0	0	0	0	0	0	0	0	0	0	0	0	0	0	0	0	0	0	0	0	0	0	0	0	0	0	0	0	0	0	0	0	0	0	0	0	0	0	0	0	0	0	0	0	0	0	0	0	0	0	0	0	0	0	0	0	2	0	2	0	24	0	24	0	0	0	0	0	0	0	0	0	0	0	2	0	0	0	0	1	1	0	0	0	24	0	0	0	0	12	12	0	0	0	0	0
Dipteros	806	796	119	183	41	41	0	0	0				0				0				0				0	0		0	0						0										0										0				0				0				0				0	0		0	0						0										0										0				0				0				0				0	0		0	0						0										0										0	
Equinodermos	81	10	70	36	10	8	4	0	0	0	0	0	0	0	0	0	0	0	0	0	0	0	0	0	0	0	0	0	0	0	0	0	0	0	2	0	0	0	0	0	1	1	0	0	2	0	0	0	0	0	1	1	0	0	0	0	0	0	0	0	0	0	0	0	0	0	0	0	0	0	0	0	0	0	0	0	0	0	0	0	1	0	0	0	0	0	1	0	0	0	1	0	0	0	0	0	1	0	0	0	0	0	0	0	0	0	0	0	0	0	0	0	0	0	0	0	0	0	0	0	0	0	0	0	0	0	1	0	0	0	0	0	0	1	0	0	1	0	0	0	0	0	0	1	0	0	0	0
Escarabajos	1526	1526	520	158	112	112	0	0	0	0	0	0	0	0	0	0	0	0	0	0	0	0	0	0	0	0	0	0	0	0	0	0	0	0	5	0	0	0	0	0	5	0	0	0	62	0	0	0	0	0	62	0	0	0	0	0	0	0	0	0	0	0	0	0	0	0	0	0	0	0	0	0	0	0	0	0	0	0	0	0	5	0	0	0	0	0	5	0	0	0	62	0	0	0	0	0	62	0	0	0	0	0	0	0	0	0	0	0	0	0	0	0	0	0	0	0	0	0	0	0	0	0	0	0	0	0	0	0	0	0	0	0	0	0	0	0	0	0	0	0	0	0	0	0	0	0	0	0
Especies Maderables	90	90	0	0	7	7	0	0	7	2	3	2	90	5	12	73	0	0	0	0	0	0	0	0	0	0	0	0	0	0	0	0	0	0	6	0	0	1	3	0	2	0	0	0	89	0	0	3	13	0	73	0	0	0	7	2	3	2	90	5	12	73	0	0	0	0	0	0	0	0	0	0	0	0	0	0	0	0	0	0	6	0	0	1	3	0	2	0	0	0	89	0	0	3	13	0	73	0	0	0	0	0	0	0	0	0	0	0	0	0	0	0	0	0	0	0	0	0	0	0	0	0	0	0	0	0	0	0	0	0	0	0	0	0	0	0	0	0	0	0	0	0	0	0	0	0	0	0
Esponjas	4	4	0	0	1	1	0	0	0				0				0				0				0	0		0	0						0										0										0				0				0				0				0	0		0	0						0										0										0				0				0				0				0	0		0	0						0										0										0	
Fanerágamas	5811	5808	6	6	27	27	0	0	7	0	4	3	620	0	613	7	0	0	0	0	0	0	0	0	4	0	0	960	0	0	0	0	0	0	16	0	0	1	3	0	10	0	2	0	3903	0	0	4	3	0	3893	0	3	0	7	0	4	3	620	0	613	7	0	0	0	0	0	0	0	0	4	0	0	960	0	0	0	0	0	0	16	0	0	1	3	0	10	0	2	0	3901	0	0	4	3	0	3891	0	3	0	0	0	0	0	0	0	0	0	0	0	0	0	0	0	0	0	0	0	0	0	0	0	0	0	0	0	0	0	0	0	0	0	0	0	0	0	0	0	0	0	0	0	0	0	0	0	0	0
Frailejones	2135	2135	0	0	3	3	0	0	1	0	0	1	108	0	0	108	0	0	0	0	0	0	0	0	2	0	0	115	0	0	0	0	0	0	3	0	0	0	1	0	2	0	0	0	2113	0	0	0	108	0	2005	0	0	0	1	0	0	1	108	0	0	108	0	0	0	0	0	0	0	0	2	0	0	115	0	0	0	0	0	0	3	0	0	0	1	0	2	0	0	0	2113	0	0	0	108	0	2005	0	0	0	0	0	0	0	0	0	0	0	0	0	0	0	0	0	0	0	0	0	0	0	0	0	0	0	0	0	0	0	0	0	0	0	0	0	0	0	0	0	0	0	0	0	0	0	0	0	0	0
Helechos y afines	27528	27527	11	11	586	586	1	1	0	0	0	0	0	0	0	0	31	0	31	0	21865	0	21865	0	10	1	0	23	12	0	0	0	0	0	7	0	0	0	0	0	6	1	0	0	24	0	0	0	0	0	21	3	0	0	0	0	0	0	0	0	0	0	31	0	31	0	21865	0	21865	0	10	1	0	23	12	0	0	0	0	0	7	0	0	0	0	0	6	1	0	0	24	0	0	0	0	0	21	3	0	0	0	0	0	0	0	0	0	0	0	0	0	0	0	0	0	0	0	0	0	0	0	0	0	0	0	0	1	0	0	0	0	0	1	0	0	0	10	0	0	0	0	0	10	0	0	0	0	0
Hongos	2156	2148	101	13	547	547	0	0	0	0	0	0	0	0	0	0	0	0	0	0	0	0	0	0	1	0	0	4	0	0	0	0	0	0	3	0	0	0	2	1	0	0	0	0	7	0	0	0	5	2	0	0	0	0	0	0	0	0	0	0	0	0	0	0	0	0	0	0	0	0	1	0	0	4	0	0	0	0	0	0	3	0	0	0	2	1	0	0	0	0	7	0	0	0	5	2	0	0	0	0	0	0	0	0	0	0	0	0	0	0	0	0	0	0	0	0	0	0	0	0	0	0	0	0	0	0	0	0	0	0	0	0	0	0	0	0	0	0	0	0	0	0	0	0	0	0	0	0
Hormigas	404	404	0	0	55	55	0	0	0				0				0				0				0	0		0	0						0										0										0				0				0				0				0	0		0	0						0										0										0				0				0				0				0	0		0	0						0										0										0	
Insectos	4177	4164	658	348	444	442	0	0	1	0	0	1	1	0	0	1	0	0	0	0	0	0	0	0	0	0	0	0	0	0	0	0	0	0	11	0	0	0	0	0	8	3	0	0	93	0	0	0	0	0	65	28	0	0	1	0	0	1	1	0	0	1	0	0	0	0	0	0	0	0	0	0	0	0	0	0	0	0	0	0	10	0	0	0	0	0	7	3	0	0	92	0	0	0	0	0	64	28	0	0	0	0	0	0	0	0	0	0	0	0	0	0	0	0	0	0	0	0	0	0	0	0	0	0	0	0	0	0	0	0	0	0	0	0	0	0	0	0	0	0	0	0	0	0	0	0	0	0
Invertebrados	12474	6084	5925	1499	946	730	301	20	5	0	0	5	269	0	0	269	3	0	3	0	30	0	30	0	0	2	0	0	4	0	0	0	0	0	26	0	0	0	1	1	17	7	0	0	161	0	0	0	1	12	116	32	0	0	3	0	0	3	101	0	0	101	0	0	0	0	0	0	0	0	0	2	0	0	4	0	0	0	0	0	19	0	0	0	1	0	14	4	0	0	102	0	0	0	1	0	72	29	0	0	4	0	0	4	168	0	0	168	2	0	2	0	24	0	24	0	0	0	0	0	0	0	0	0	0	0	8	0	0	0	0	1	4	3	0	0	58	0	0	0	0	12	43	3	0	0	2	0
Líquenes	1773	1765	62	0	424	424	0	0	0	0	0	0	0	0	0	0	0	0	0	0	0	0	0	0	1	0	0	4	0	0	0	0	0	0	0	0	0	0	0	0	0	0	0	0	0	0	0	0	0	0	0	0	0	0	0	0	0	0	0	0	0	0	0	0	0	0	0	0	0	0	1	0	0	4	0	0	0	0	0	0	0	0	0	0	0	0	0	0	0	0	0	0	0	0	0	0	0	0	0	0	0	0	0	0	0	0	0	0	0	0	0	0	0	0	0	0	0	0	0	0	0	0	0	0	0	0	0	0	0	0	0	0	0	0	0	0	0	0	0	0	0	0	0	0	0	0	0	0
Magnolias y afines	4818	4816	0	0	31	30	0	0	8	1	2	5	4700	11	21	4668	0	0	0	0	0	0	0	0	5	0	0	32	0	0	0	0	0	0	19	0	1	2	1	0	15	0	0	0	77	0	11	21	2	0	43	0	0	0	8	1	2	5	4700	11	21	4668	0	0	0	0	0	0	0	0	5	0	0	32	0	0	0	0	0	0	19	0	1	2	1	0	15	0	0	0	77	0	11	21	2	0	43	0	0	0	0	0	0	0	0	0	0	0	0	0	0	0	0	0	0	0	0	0	0	0	0	0	0	0	0	0	0	0	0	0	0	0	0	0	0	0	0	0	0	0	0	0	0	0	0	0	0	0
Mamíferos	1606	1606	1	0	139	139	0	0	8	0	3	5	27	0	4	23	20	7	11	2	66	31	25	10	5	3	0	67	15	0	0	0	3	15	119	0	0	2	9	8	90	10	0	0	1192	0	0	3	36	11	1110	32	0	0	8	0	3	5	27	0	4	23	20	7	11	2	66	31	25	10	5	3	0	67	15	0	0	0	3	15	119	0	0	2	9	8	90	10	0	0	1192	0	0	3	36	11	1110	32	0	0	0	0	0	0	0	0	0	0	0	0	0	0	0	0	0	0	0	0	0	0	0	0	0	0	0	0	0	0	0	0	0	0	0	0	0	0	0	0	0	0	0	0	0	0	0	0	0	0
Mamíferos Marinos	1	1	0	0	1	1	0	0	1	0	1	0	1	0	1	0	1	1	0	0	1	1	0	0	0	0	0	0	0	0	0	0	0	0	0	0	0	0	0	0	0	0	0	0	0	0	0	0	0	0	0	0	0	0	1	0	1	0	1	0	1	0	1	1	0	0	1	1	0	0	0	0	0	0	0	0	0	0	0	0	0	0	0	0	0	0	0	0	0	0	0	0	0	0	0	0	0	0	0	0	0	0	0	0	0	0	0	0	0	0	0	0	0	0	0	0	0	0	0	0	0	0	0	0	0	0	0	0	0	0	0	0	0	0	0	0	0	0	0	0	0	0	0	0	0	0	0	0
Mangles	86	79	7	6	7	7	3	2	1	0	1	0	8	0	8	0	0	0	0	0	0	0	0	0	0	0	0	0	0	0	0	0	0	0	6	0	0	0	2	0	4	0	0	0	68	0	0	0	14	0	54	0	0	0	1	0	1	0	8	0	8	0	0	0	0	0	0	0	0	0	0	0	0	0	0	0	0	0	0	0	6	0	0	0	2	0	4	0	0	0	66	0	0	0	13	0	53	0	0	0	0	0	0	0	0	0	0	0	0	0	0	0	0	0	0	0	0	0	0	0	0	0	0	0	0	0	2	0	0	0	1	0	1	0	0	0	2	0	0	0	1	0	1	0	0	0	0	0
Mariposas	319	317	0	0	134	132	0	0	1	0	0	1	1	0	0	1	0	0	0	0	0	0	0	0	0	0	0	0	0	0	0	0	0	0	2	0	0	0	0	0	2	0	0	0	2	0	0	0	0	0	2	0	0	0	1	0	0	1	1	0	0	1	0	0	0	0	0	0	0	0	0	0	0	0	0	0	0	0	0	0	1	0	0	0	0	0	1	0	0	0	1	0	0	0	0	0	1	0	0	0	0	0	0	0	0	0	0	0	0	0	0	0	0	0	0	0	0	0	0	0	0	0	0	0	0	0	0	0	0	0	0	0	0	0	0	0	0	0	0	0	0	0	0	0	0	0	0	0
Medusas	36	0	36	36					0				0				0				0				0	0		0	0						0										0										0				0				0				0				0	0		0	0						0										0										0				0				0				0				0	0		0	0						0										0										0	
Moluscos	1863	621	1108	155	216	116	156	2	2	0	0	2	133	0	0	133	0	0	0	0	0	0	0	0	0	2	0	0	4	0	0	0	0	0	4	0	0	0	0	0	3	1	0	0	34	0	0	0	0	0	33	1	0	0	1	0	0	1	97	0	0	97	0	0	0	0	0	0	0	0	0	2	0	0	4	0	0	0	0	0	2	0	0	0	0	0	2	0	0	0	2	0	0	0	0	0	2	0	0	0	2	0	0	2	36	0	0	36	0	0	0	0	0	0	0	0	0	0	0	0	0	0	0	0	0	0	4	0	0	0	0	0	3	1	0	0	32	0	0	0	0	0	31	1	0	0	0	0
Musgos y afines	5219	5214	15	38	543	543	0	0	4	1	1	2	13	2	1	10	0	0	0	0	0	0	0	0	4	0	0	10	0	0	0	0	0	0	1	0	0	0	0	0	1	0	0	0	1	0	0	0	0	0	1	0	0	0	4	1	1	2	13	2	1	10	0	0	0	0	0	0	0	0	4	0	0	10	0	0	0	0	0	0	1	0	0	0	0	0	1	0	0	0	1	0	0	0	0	0	1	0	0	0	0	0	0	0	0	0	0	0	0	0	0	0	0	0	0	0	0	0	0	0	0	0	0	0	0	0	0	0	0	0	0	0	0	0	0	0	0	0	0	0	0	0	0	0	0	0	0	0
Orquídeas	1530	1530	0	0	333	333	0	0	5	0	0	5	9	0	0	9	168	0	168	0	518	0	518	0	48	0	0	71	0	0	0	0	0	0	9	0	0	2	0	0	7	0	0	0	26	0	0	2	0	0	24	0	0	0	5	0	0	5	9	0	0	9	168	0	168	0	518	0	518	0	48	0	0	71	0	0	0	0	0	0	9	0	0	2	0	0	7	0	0	0	26	0	0	2	0	0	24	0	0	0	0	0	0	0	0	0	0	0	0	0	0	0	0	0	0	0	0	0	0	0	0	0	0	0	0	0	0	0	0	0	0	0	0	0	0	0	0	0	0	0	0	0	0	0	0	0	0	0
Palmas	37322	37322	5	0	56	56	0	0	6	0	5	1	61	0	53	8	0	0	0	0	0	0	0	0	3	0	0	33	0	0	0	0	0	0	8	0	0	1	1	1	3	0	1	1	2916	0	0	14	3	10	2642	0	238	9	6	0	5	1	61	0	53	8	0	0	0	0	0	0	0	0	3	0	0	33	0	0	0	0	0	0	8	0	0	1	1	1	3	0	1	1	2916	0	0	14	3	10	2642	0	238	9	0	0	0	0	0	0	0	0	0	0	0	0	0	0	0	0	0	0	0	0	0	0	0	0	0	0	0	0	0	0	0	0	0	0	0	0	0	0	0	0	0	0	0	0	0	0	0	0
Peces	2374	531	1752	921	293	117	193	81	7	0	0	7	76	0	0	76	1	0	1	0	4	0	4	0	24	1	0	100	3	0	1	3	1	3	245	0	4	1	7	3	213	17	0	0	1926	0	16	4	37	16	1789	64	0	0	4	0	0	4	9	0	0	9	0	0	0	0	0	0	0	0	24	1	0	94	2	0	1	2	1	2	89	0	0	1	3	2	74	9	0	0	304	0	0	4	25	13	238	24	0	0	3	0	0	3	67	0	0	67	1	0	1	0	4	0	4	0	0	0	0	0	0	0	0	0	0	0	176	0	4	0	4	1	159	8	0	0	1606	0	16	0	12	1	1537	40	0	0	1	0
Peces Marinos	359	6	353	98	45	4	44	2	1	0	0	1	3	0	0	3	0	0	0	0	0	0	0	0	0	0	0	0	0	0	0	0	0	0	42	0	0	0	3	0	37	2	0	0	351	0	0	0	11	0	338	2	0	0	0	0	0	0	0	0	0	0	0	0	0	0	0	0	0	0	0	0	0	0	0	0	0	0	0	0	4	0	0	0	0	0	4	0	0	0	5	0	0	0	0	0	5	0	0	0	1	0	0	1	3	0	0	3	0	0	0	0	0	0	0	0	0	0	0	0	0	0	0	0	0	0	41	0	0	0	3	0	36	2	0	0	346	0	0	0	11	0	333	2	0	0	0	0
Pinos y afines	17	17	0	0	6	6	0	0	0	0	0	0	0	0	0	0	0	0	0	0	0	0	0	0	0	2	0	0	8	0	0	0	2	8	0	0	0	0	0	0	0	0	0	0	0	0	0	0	0	0	0	0	0	0	0	0	0	0	0	0	0	0	0	0	0	0	0	0	0	0	0	2	0	0	8	0	0	0	2	8	0	0	0	0	0	0	0	0	0	0	0	0	0	0	0	0	0	0	0	0	0	0	0	0	0	0	0	0	0	0	0	0	0	0	0	0	0	0	0	0	0	0	0	0	0	0	0	0	0	0	0	0	0	0	0	0	0	0	0	0	0	0	0	0	0	0	0	0
Plantas	431859	430380	2769	3019	6415	6398	7	5	75	8	29	38	5825	29	749	5047	205	0	205	0	22402	0	22402	0	545	118	0	15151	829	0	3	7	16	81	1072	5	7	28	38	19	955	8	9	3	153319	237	42	942	2787	100	148424	91	682	14	75	8	29	38	5825	29	749	5047	205	0	205	0	22401	0	22401	0	544	118	0	15148	811	0	3	7	16	81	1070	5	7	28	38	19	953	8	9	3	153243	237	42	942	2786	100	148349	91	682	14	0	0	0	0	0	0	0	0	0	0	0	0	0	0	0	0	0	0	0	0	0	0	0	0	0	0	3	0	0	0	1	0	2	0	0	0	12	0	0	0	1	0	11	0	0	0	0	0
Reptiles	483	445	24	5	91	82	2	0	6	0	3	3	58	0	20	38	6	2	4	0	46	36	10	0	0	1	0	0	12	0	0	0	0	0	66	0	0	4	2	4	54	0	0	2	356	0	0	21	37	18	276	0	0	4	6	0	3	3	46	0	18	28	5	2	3	0	30	24	6	0	0	1	0	0	11	0	0	0	0	0	62	0	0	3	2	4	51	0	0	2	333	0	0	18	27	18	266	0	0	4	2	1	0	1	12	0	2	10	2	2	0	0	12	12	0	0	0	0	0	0	0	0	0	0	0	0	2	0	0	1	1	0	0	0	0	0	12	0	0	2	10	0	0	0	0	0	0	0
Tortugas marinas	36	24	12	0	2	2	2	0	2	0	1	1	36	0	3	33	2	2	0	0	36	36	0	0	0	0	0	0	0	0	0	0	0	0	2	0	0	1	1	0	0	0	0	0	36	0	0	3	33	0	0	0	0	0	2	0	1	1	24	0	1	23	2	2	0	0	24	24	0	0	0	0	0	0	0	0	0	0	0	0	2	0	0	1	1	0	0	0	0	0	24	0	0	1	23	0	0	0	0	0	2	1	0	1	12	0	2	10	2	2	0	0	12	12	0	0	0	0	0	0	0	0	0	0	0	0	2	0	0	1	1	0	0	0	0	0	12	0	0	2	10	0	0	0	0	0	0	0
Vertebrados	150517	137176	5726	1579	1804	1592	257	95	71	5	29	37	3013	351	1017	1645	215	12	195	8	20600	149	19494	957	38	8	106	279	958	12391	1	3	7	946	1560	0	11	25	61	70	1358	33	0	2	137279	0	1731	240	1913	3048	129517	826	0	4	66	5	28	33	2869	351	957	1561	210	12	190	8	19954	121	18876	957	38	8	97	273	796	9803	1	2	7	785	1379	0	7	24	56	69	1196	25	0	2	125323	0	1715	237	1874	2973	117734	786	0	4	7	2	0	5	132	0	50	82	4	2	2	0	18	12	6	0	0	0	30	0	0	1427	0	0	0	0	228	0	4	1	5	5	205	8	0	0	4846	0	16	2	22	56	4710	40	0	0	1	0
Zamias	4	4	0	0	1	1	0	0	1	0	0	1	2	0	0	2	1	0	1	0	2	0	2	0	0	0	0	0	0	0	0	0	0	0	1	0	0	0	0	1	0	0	0	0	2	0	0	0	0	2	0	0	0	0	1	0	0	1	2	0	0	2	1	0	1	0	2	0	2	0	0	0	0	0	0	0	0	0	0	0	1	0	0	0	0	1	0	0	0	0	2	0	0	0	0	2	0	0	0	0	0	0	0	0	0	0	0	0	0	0	0	0	0	0	0	0	0	0	0	0	0	0	0	0	0	0	0	0	0	0	0	0	0	0	0	0	0	0	0	0	0	0	0	0	0	0	0	0
